EESchema Schematic File Version 4
EELAYER 30 0
EELAYER END
$Descr A4 11693 8268
encoding utf-8
Sheet 1 1
Title "rfcontroller"
Date ""
Rev "2"
Comp "mike7b4"
Comment1 ""
Comment2 ""
Comment3 ""
Comment4 ""
$EndDescr
$Comp
L stm32newboard-rescue:C C10
U 1 1 5766DF9B
P 8475 5100
F 0 "C10" H 8590 5146 50  0000 L CNN
F 1 "100nF" H 8590 5055 50  0000 L CNN
F 2 "Capacitor_SMD:C_0603_1608Metric" H 8513 4950 50  0001 C CNN
F 3 "" H 8475 5100 50  0000 C CNN
F 4 " C14663" H 8475 5100 50  0001 C CNN "LCSC"
	1    8475 5100
	1    0    0    -1  
$EndComp
$Comp
L stm32newboard-rescue:C C11
U 1 1 5766E0FD
P 8975 5100
F 0 "C11" H 9090 5146 50  0000 L CNN
F 1 "100nF" H 9090 5055 50  0000 L CNN
F 2 "Capacitor_SMD:C_0603_1608Metric" H 9013 4950 50  0001 C CNN
F 3 "" H 8975 5100 50  0000 C CNN
F 4 " C14663" H 8975 5100 50  0001 C CNN "LCSC"
	1    8975 5100
	1    0    0    -1  
$EndComp
$Comp
L stm32newboard-rescue:+12V #PWR010
U 1 1 5766E18E
P 950 1350
F 0 "#PWR010" H 950 1200 50  0001 C CNN
F 1 "+12V" H 925 1200 50  0000 C CNN
F 2 "" H 950 1350 50  0000 C CNN
F 3 "" H 950 1350 50  0000 C CNN
	1    950  1350
	1    0    0    -1  
$EndComp
$Comp
L stm32newboard-rescue:+3V3 #PWR038
U 1 1 5766E1AE
P 8975 4800
F 0 "#PWR038" H 8975 4650 50  0001 C CNN
F 1 "+3V3" H 8975 4950 50  0000 C CNN
F 2 "" H 8975 4800 50  0000 C CNN
F 3 "" H 8975 4800 50  0000 C CNN
	1    8975 4800
	1    0    0    -1  
$EndComp
$Comp
L stm32newboard-rescue:GND #PWR02
U 1 1 57671772
P 3600 6300
F 0 "#PWR02" H 3600 6050 50  0001 C CNN
F 1 "GND" H 3605 6127 50  0000 C CNN
F 2 "" H 3600 6300 50  0000 C CNN
F 3 "" H 3600 6300 50  0000 C CNN
	1    3600 6300
	1    0    0    -1  
$EndComp
Text GLabel 7200 5650 2    60   Input ~ 0
SWDCLK
Text GLabel 7200 5550 2    60   Input ~ 0
SWDIO
Text GLabel 3025 5150 2    60   Input ~ 0
USBDP_OR_USART1_RX
Text GLabel 3025 5250 2    60   Input ~ 0
USBDM_OR_USART1_TX
Text GLabel 7075 1375 0    60   Input ~ 0
BT_SWITCH
Text GLabel 7650 1175 1    60   Input ~ 0
BT_LOAD
Text GLabel 8825 2500 0    60   Input ~ 0
12V_LOAD
$Comp
L stm32newboard-rescue:+12V #PWR037
U 1 1 5768A337
P 8875 3200
F 0 "#PWR037" H 8875 3050 50  0001 C CNN
F 1 "+12V" H 8875 3175 50  0000 C CNN
F 2 "" H 8875 3200 50  0000 C CNN
F 3 "" H 8875 3200 50  0000 C CNN
	1    8875 3200
	-1   0    0    1   
$EndComp
Text GLabel 7200 4550 2    60   Input ~ 0
AN_BATTERY
Text GLabel 10425 3250 2    60   Input ~ 0
AN_BATTERY
$Comp
L stm32newboard-rescue:R R2
U 1 1 5769E0ED
P 10025 3500
F 0 "R2" H 10095 3546 50  0000 L CNN
F 1 "10k" H 10095 3455 50  0000 L CNN
F 2 "Resistor_SMD:R_0603_1608Metric_Pad1.05x0.95mm_HandSolder" V 9955 3500 50  0001 C CNN
F 3 "" H 10025 3500 50  0000 C CNN
F 4 "C25804" H 10025 3500 50  0001 C CNN "LCSC"
	1    10025 3500
	1    0    0    -1  
$EndComp
$Comp
L stm32newboard-rescue:R R1
U 1 1 5769DFC4
P 10025 3025
F 0 "R1" H 10095 3071 50  0000 L CNN
F 1 "52.3k" H 10095 2980 50  0000 L CNN
F 2 "Resistor_SMD:R_0603_1608Metric_Pad1.05x0.95mm_HandSolder" V 9955 3025 50  0001 C CNN
F 3 "" H 10025 3025 50  0000 C CNN
F 4 "C23198" H 10025 3025 50  0001 C CNN "LCSC"
	1    10025 3025
	1    0    0    -1  
$EndComp
$Comp
L stm32newboard-rescue:GND #PWR08
U 1 1 576EB0C3
P 5400 1025
F 0 "#PWR08" H 5400 775 50  0001 C CNN
F 1 "GND" H 5405 852 50  0000 C CNN
F 2 "" H 5400 1025 50  0000 C CNN
F 3 "" H 5400 1025 50  0000 C CNN
	1    5400 1025
	-1   0    0    1   
$EndComp
Text Notes 5700 6050 2    60   ~ 0
PB8 is BOOT0:\nGND Boot to Flash\nN.C. DFU
$Comp
L stm32newboard-rescue:CONN_01X05 P2
U 1 1 586D2376
P 2825 5150
F 0 "P2" H 2903 5191 50  0000 L CNN
F 1 "USB" H 2903 5100 50  0000 L CNN
F 2 "Connector_PinHeader_2.54mm:PinHeader_1x05_P2.54mm_Vertical" H 2825 5150 50  0001 C CNN
F 3 "" H 2825 5150 50  0000 C CNN
	1    2825 5150
	-1   0    0    -1  
$EndComp
NoConn ~ 3025 5050
NoConn ~ -3500 3675
NoConn ~ -2525 3800
$Comp
L stm32newboard-rescue:GND #PWR035
U 1 1 586E3E2E
P 1175 4650
F 0 "#PWR035" H 1175 4400 50  0001 C CNN
F 1 "GND" H 1180 4477 50  0000 C CNN
F 2 "" H 1175 4650 50  0000 C CNN
F 3 "" H 1175 4650 50  0000 C CNN
	1    1175 4650
	1    0    0    -1  
$EndComp
$Comp
L stm32newboard-rescue:+3V3 #PWR09
U 1 1 586FBEA1
P 6025 1800
F 0 "#PWR09" H 6025 1650 50  0001 C CNN
F 1 "+3V3" H 6040 1973 50  0000 C CNN
F 2 "" H 6025 1800 50  0000 C CNN
F 3 "" H 6025 1800 50  0000 C CNN
	1    6025 1800
	-1   0    0    1   
$EndComp
$Comp
L stm32newboard-rescue:LED-RESCUE-rfcontroller D1
U 1 1 58712C55
P 10175 1775
F 0 "D1" H 10166 1991 50  0000 C CNN
F 1 "LED" H 10166 1900 50  0000 C CNN
F 2 "LED_SMD:LED_1206_3216Metric" H 10175 1775 50  0001 C CNN
F 3 "" H 10175 1775 50  0000 C CNN
F 4 " C72691" H 10175 1775 50  0001 C CNN "LCSC"
	1    10175 1775
	0    -1   -1   0   
$EndComp
$Comp
L stm32newboard-rescue:R R6
U 1 1 58712DDB
P 10175 1350
F 0 "R6" V 9968 1350 50  0000 C CNN
F 1 "27" V 10059 1350 50  0000 C CNN
F 2 "Resistor_SMD:R_0603_1608Metric_Pad1.05x0.95mm_HandSolder" V 10105 1350 50  0001 C CNN
F 3 "" H 10175 1350 50  0000 C CNN
F 4 " C25190" V 10175 1350 50  0001 C CNN "LCSC"
	1    10175 1350
	1    0    0    -1  
$EndComp
$Comp
L stm32newboard-rescue:GND #PWR012
U 1 1 58712ED6
P 10175 2050
F 0 "#PWR012" H 10175 1800 50  0001 C CNN
F 1 "GND" H 10180 1877 50  0000 C CNN
F 2 "" H 10175 2050 50  0000 C CNN
F 3 "" H 10175 2050 50  0000 C CNN
	1    10175 2050
	1    0    0    -1  
$EndComp
Text GLabel 10175 1050 1    60   Input ~ 0
LED1
$Comp
L stm32newboard-rescue:R R10
U 1 1 58713F15
P 5875 5875
F 0 "R10" V 5975 5875 50  0000 C CNN
F 1 "10K" V 6050 5875 50  0000 C CNN
F 2 "Resistor_SMD:R_0603_1608Metric_Pad1.05x0.95mm_HandSolder" V 5805 5875 50  0001 C CNN
F 3 "" H 5875 5875 50  0000 C CNN
F 4 "C25804" V 5875 5875 50  0001 C CNN "LCSC"
	1    5875 5875
	1    0    0    -1  
$EndComp
$Comp
L stm32newboard-rescue:GND #PWR021
U 1 1 587142E9
P 5875 6025
F 0 "#PWR021" H 5875 5775 50  0001 C CNN
F 1 "GND" V 5880 5897 50  0000 R CNN
F 2 "" H 5875 6025 50  0000 C CNN
F 3 "" H 5875 6025 50  0000 C CNN
	1    5875 6025
	1    0    0    -1  
$EndComp
$Comp
L stm32newboard-rescue:GND #PWR011
U 1 1 58E9411D
P 900 1075
F 0 "#PWR011" H 900 825 50  0001 C CNN
F 1 "GND" V 905 947 50  0000 R CNN
F 2 "" H 900 1075 50  0001 C CNN
F 3 "" H 900 1075 50  0001 C CNN
	1    900  1075
	-1   0    0    1   
$EndComp
$Comp
L stm32newboard-rescue:C C7
U 1 1 58E95808
P 2775 1125
F 0 "C7" H 2660 1079 50  0000 R CNN
F 1 "100nF" H 2650 1150 50  0000 R CNN
F 2 "Capacitor_SMD:C_0603_1608Metric" H 2813 975 50  0001 C CNN
F 3 "" H 2775 1125 50  0001 C CNN
F 4 " C14663" H 2775 1125 50  0001 C CNN "LCSC"
	1    2775 1125
	-1   0    0    1   
$EndComp
$Comp
L stm32newboard-rescue:L L1
U 1 1 58E9695A
P 2975 1300
F 0 "L1" V 3025 1125 50  0000 C CNN
F 1 "22uH" V 3050 1300 50  0000 C CNN
F 2 "Inductor_SMD:L_Wuerth_HCI-5040" H 2975 1300 50  0001 C CNN
F 3 "" H 2975 1300 50  0001 C CNN
F 4 "C206321" V 2975 1300 50  0001 C CNN "LCSC"
	1    2975 1300
	0    -1   -1   0   
$EndComp
$Comp
L stm32newboard-rescue:+5V #PWR025
U 1 1 58E97EBE
P 3875 1300
F 0 "#PWR025" H 3875 1150 50  0001 C CNN
F 1 "+5V" V 3900 1400 50  0000 L CNN
F 2 "" H 3875 1300 50  0001 C CNN
F 3 "" H 3875 1300 50  0001 C CNN
	1    3875 1300
	0    1    1    0   
$EndComp
$Comp
L stm32newboard-rescue:C C8
U 1 1 58E9817B
P 3500 1525
F 0 "C8" H 3350 1450 50  0000 L CNN
F 1 "10uF" H 3300 1650 50  0000 L CNN
F 2 "Capacitor_SMD:C_0603_1608Metric" H 3538 1375 50  0001 C CNN
F 3 "" H 3500 1525 50  0001 C CNN
F 4 "C19702" H 3500 1525 50  0001 C CNN "LCSC"
	1    3500 1525
	-1   0    0    1   
$EndComp
$Comp
L stm32newboard-rescue:GND #PWR020
U 1 1 58E98339
P 3500 1750
F 0 "#PWR020" H 3500 1500 50  0001 C CNN
F 1 "GND" H 3505 1577 50  0000 C CNN
F 2 "" H 3500 1750 50  0001 C CNN
F 3 "" H 3500 1750 50  0001 C CNN
	1    3500 1750
	1    0    0    -1  
$EndComp
Text GLabel 1375 1050 1    60   Input ~ 0
VFB
Text GLabel 3075 1900 0    60   Input ~ 0
VFB
$Comp
L stm32newboard-rescue:R R8
U 1 1 58E9BF6B
P 3200 1575
F 0 "R8" V 3100 1575 50  0000 C CNN
F 1 "52.3k" V 3300 1575 50  0000 C CNN
F 2 "Resistor_SMD:R_0603_1608Metric_Pad1.05x0.95mm_HandSolder" V 3130 1575 50  0001 C CNN
F 3 "" H 3200 1575 50  0000 C CNN
F 4 "C23198" V 3200 1575 50  0001 C CNN "LCSC"
	1    3200 1575
	1    0    0    -1  
$EndComp
$Comp
L stm32newboard-rescue:R R9
U 1 1 58E9C21D
P 3200 2125
F 0 "R9" V 3100 2125 50  0000 C CNN
F 1 "10k" V 3300 2125 50  0000 C CNN
F 2 "Resistor_SMD:R_0603_1608Metric_Pad1.05x0.95mm_HandSolder" V 3130 2125 50  0001 C CNN
F 3 "" H 3200 2125 50  0000 C CNN
F 4 "C25804" V 3200 2125 50  0001 C CNN "LCSC"
	1    3200 2125
	1    0    0    -1  
$EndComp
$Comp
L stm32newboard-rescue:GND #PWR019
U 1 1 58E9C58D
P 3200 2350
F 0 "#PWR019" H 3200 2100 50  0001 C CNN
F 1 "GND" H 3205 2177 50  0000 C CNN
F 2 "" H 3200 2350 50  0001 C CNN
F 3 "" H 3200 2350 50  0001 C CNN
	1    3200 2350
	1    0    0    -1  
$EndComp
$Comp
L stm32newboard-rescue:GND #PWR018
U 1 1 58E9E268
P 2600 950
F 0 "#PWR018" H 2600 700 50  0001 C CNN
F 1 "GND" V 2605 822 50  0000 R CNN
F 2 "" H 2600 950 50  0001 C CNN
F 3 "" H 2600 950 50  0001 C CNN
	1    2600 950 
	-1   0    0    1   
$EndComp
$Comp
L stm32newboard-rescue:C C9
U 1 1 58EA2261
P 3750 1525
F 0 "C9" H 3600 1450 50  0000 L CNN
F 1 "10uF" H 3550 1650 50  0000 L CNN
F 2 "Capacitor_SMD:C_0603_1608Metric" H 3788 1375 50  0001 C CNN
F 3 "" H 3750 1525 50  0001 C CNN
F 4 "C19702" H 3750 1525 50  0001 C CNN "LCSC"
	1    3750 1525
	-1   0    0    1   
$EndComp
$Comp
L stm32newboard-rescue:GND #PWR023
U 1 1 58EA2504
P 3750 1750
F 0 "#PWR023" H 3750 1500 50  0001 C CNN
F 1 "GND" H 3755 1577 50  0000 C CNN
F 2 "" H 3750 1750 50  0001 C CNN
F 3 "" H 3750 1750 50  0001 C CNN
	1    3750 1750
	1    0    0    -1  
$EndComp
$Comp
L stm32newboard-rescue:C C2
U 1 1 58F0AA3A
P 10325 3500
F 0 "C2" H 10175 3425 50  0000 L CNN
F 1 "10nF" H 10125 3625 50  0000 L CNN
F 2 "Capacitor_SMD:C_0603_1608Metric" H 10363 3350 50  0001 C CNN
F 3 "" H 10325 3500 50  0001 C CNN
F 4 " C57112" H 10325 3500 50  0001 C CNN "LCSC"
	1    10325 3500
	-1   0    0    1   
$EndComp
$Comp
L stm32newboard-rescue:GND #PWR07
U 1 1 58F0AF2E
P 10325 3700
F 0 "#PWR07" H 10325 3450 50  0001 C CNN
F 1 "GND" H 10330 3527 50  0000 C CNN
F 2 "" H 10325 3700 50  0000 C CNN
F 3 "" H 10325 3700 50  0000 C CNN
	1    10325 3700
	1    0    0    -1  
$EndComp
$Comp
L stm32newboard-rescue:24LC1025 U1
U 1 1 58F480B8
P 1500 3575
F 0 "U1" H 1500 4053 50  0000 C CNN
F 1 "24LC01B" H 1700 3875 50  0000 C CNN
F 2 "Package_SO:SOIC-8_3.9x4.9mm_P1.27mm" H 1550 3325 50  0001 L CNN
F 3 "" H 1500 3475 50  0001 C CNN
F 4 " C5452" H 1500 3575 50  0001 C CNN "LCSC"
	1    1500 3575
	1    0    0    -1  
$EndComp
$Comp
L stm32newboard-rescue:+3V3 #PWR05
U 1 1 58F483F5
P 1500 3125
F 0 "#PWR05" H 1500 2975 50  0001 C CNN
F 1 "+3V3" H 1500 3250 50  0000 C CNN
F 2 "" H 1500 3125 50  0000 C CNN
F 3 "" H 1500 3125 50  0000 C CNN
	1    1500 3125
	1    0    0    -1  
$EndComp
$Comp
L stm32newboard-rescue:GND #PWR06
U 1 1 58F48773
P 1500 3925
F 0 "#PWR06" H 1500 3675 50  0001 C CNN
F 1 "GND" H 1505 3752 50  0001 C CNN
F 2 "" H 1500 3925 50  0001 C CNN
F 3 "" H 1500 3925 50  0001 C CNN
	1    1500 3925
	1    0    0    -1  
$EndComp
Text GLabel 2900 3575 2    60   Input ~ 0
I2C_CLK
Text GLabel 2250 3475 2    60   Input ~ 0
I2C_DATA
$Comp
L stm32newboard-rescue:R R4
U 1 1 58F52114
P 2825 3350
F 0 "R4" H 2895 3396 50  0000 L CNN
F 1 "4.7k" H 2895 3305 50  0000 L CNN
F 2 "Resistor_SMD:R_0603_1608Metric_Pad1.05x0.95mm_HandSolder" V 2755 3350 50  0001 C CNN
F 3 "" H 2825 3350 50  0001 C CNN
F 4 "C23162" H 2825 3350 50  0001 C CNN "LCSC"
	1    2825 3350
	-1   0    0    1   
$EndComp
$Comp
L stm32newboard-rescue:R R3
U 1 1 58F534A5
P 2175 3300
F 0 "R3" H 2245 3346 50  0000 L CNN
F 1 "4.7k" H 2245 3255 50  0000 L CNN
F 2 "Resistor_SMD:R_0603_1608Metric_Pad1.05x0.95mm_HandSolder" V 2105 3300 50  0001 C CNN
F 3 "" H 2175 3300 50  0001 C CNN
F 4 "C23162" H 2175 3300 50  0001 C CNN "LCSC"
	1    2175 3300
	1    0    0    -1  
$EndComp
$Comp
L stm32newboard-rescue:C C5
U 1 1 58F87C4C
P 1075 1200
F 0 "C5" H 1025 1300 50  0000 L CNN
F 1 "1uF" H 1025 1125 50  0000 L CNN
F 2 "Capacitor_SMD:C_0603_1608Metric" H 1113 1050 50  0001 C CNN
F 3 "" H 1075 1200 50  0001 C CNN
F 4 "C15849" H 1075 1200 50  0001 C CNN "LCSC"
	1    1075 1200
	0    1    1    0   
$EndComp
$Comp
L stm32newboard-rescue:MCP16311_2-RESCUE-rfcontroller U3
U 1 1 58F87474
P 1475 1100
F 0 "U3" H 2025 1390 60  0000 C CNN
F 1 "MCP16311/2" H 2025 1284 60  0000 C CNN
F 2 "Package_SO:SSOP-8_2.95x2.8mm_P0.65mm" H 1475 1100 60  0001 C CNN
F 3 "" H 1475 1100 60  0001 C CNN
F 4 " C107454" H 1475 1100 50  0001 C CNN "LCSC"
	1    1475 1100
	1    0    0    -1  
$EndComp
$Comp
L stm32newboard-rescue:GND #PWR017
U 1 1 58F8A1A5
P 2575 1400
F 0 "#PWR017" H 2575 1150 50  0001 C CNN
F 1 "GND" V 2580 1272 50  0000 R CNN
F 2 "" H 2575 1400 50  0001 C CNN
F 3 "" H 2575 1400 50  0001 C CNN
	1    2575 1400
	0    -1   -1   0   
$EndComp
$Comp
L stm32newboard-rescue:C C6
U 1 1 58F8BBC0
P 1350 1700
F 0 "C6" H 1350 1775 50  0000 L CNN
F 1 "10uF" H 1350 1625 50  0000 L CNN
F 2 "Capacitor_SMD:C_0603_1608Metric" H 1388 1550 50  0001 C CNN
F 3 "" H 1350 1700 50  0001 C CNN
F 4 "C19702" H 1350 1700 50  0001 C CNN "LCSC"
	1    1350 1700
	1    0    0    -1  
$EndComp
$Comp
L stm32newboard-rescue:C C4
U 1 1 58E93D17
P 1075 1700
F 0 "C4" H 950 1775 50  0000 L CNN
F 1 "10uF" H 1000 1625 50  0000 L CNN
F 2 "Capacitor_SMD:C_0603_1608Metric" H 1113 1550 50  0001 C CNN
F 3 "" H 1075 1700 50  0001 C CNN
F 4 " C19702" H 1075 1700 50  0001 C CNN "LCSC"
	1    1075 1700
	1    0    0    -1  
$EndComp
$Comp
L stm32newboard-rescue:GND #PWR014
U 1 1 58F8FC06
P 1200 1925
F 0 "#PWR014" H 1200 1675 50  0001 C CNN
F 1 "GND" V 1205 1797 50  0000 R CNN
F 2 "" H 1200 1925 50  0001 C CNN
F 3 "" H 1200 1925 50  0001 C CNN
	1    1200 1925
	1    0    0    -1  
$EndComp
Text GLabel 3475 6150 2    60   Input ~ 0
SWDCLK
Text GLabel 3475 6050 2    60   Input ~ 0
SWDIO
Text GLabel 7200 4750 2    60   Input ~ 0
USART2_TX
Text GLabel 7200 4850 2    60   Input ~ 0
USART2_RX
Text Notes 1025 3275 0    60   ~ 0
EEPROM\n
NoConn ~ 3025 5350
Text Notes 3075 5375 0    60   ~ 0
5v\n
$Comp
L stm32newboard-rescue:+3V3 #PWR026
U 1 1 58FA613D
P 6400 4200
F 0 "#PWR026" H 6400 4050 50  0001 C CNN
F 1 "+3V3" H 6425 4350 50  0000 C CNN
F 2 "" H 6400 4200 50  0000 C CNN
F 3 "" H 6400 4200 50  0000 C CNN
	1    6400 4200
	1    0    0    -1  
$EndComp
$Comp
L stm32newboard-rescue:CONN_01X01 J1
U 1 1 5905F2F7
P 950 7175
F 0 "J1" H 1028 7216 50  0000 L CNN
F 1 "Hole" H 1028 7125 50  0000 L CNN
F 2 "MountingHole:MountingHole_2.2mm_M2" H 950 7175 50  0001 C CNN
F 3 "" H 950 7175 50  0001 C CNN
	1    950  7175
	0    -1   -1   0   
$EndComp
NoConn ~ 950  7375
$Comp
L stm32newboard-rescue:CONN_01X01 J3
U 1 1 5905F8A2
P 1400 7175
F 0 "J3" H 1478 7216 50  0000 L CNN
F 1 "Hole" H 1478 7125 50  0000 L CNN
F 2 "MountingHole:MountingHole_2.2mm_M2" H 1400 7175 50  0001 C CNN
F 3 "" H 1400 7175 50  0001 C CNN
	1    1400 7175
	0    -1   -1   0   
$EndComp
NoConn ~ 1400 7375
NoConn ~ 1650 7375
$Comp
L stm32newboard-rescue:CONN_01X01 J2
U 1 1 5905FB3E
P 1150 7175
F 0 "J2" H 1228 7216 50  0000 L CNN
F 1 "Hole" H 1228 7125 50  0000 L CNN
F 2 "MountingHole:MountingHole_2.2mm_M2" H 1150 7175 50  0001 C CNN
F 3 "" H 1150 7175 50  0001 C CNN
	1    1150 7175
	0    -1   -1   0   
$EndComp
NoConn ~ 1150 7375
$Comp
L stm32newboard-rescue:R R5
U 1 1 591DE5EF
P 1300 1300
F 0 "R5" V 1400 1300 50  0000 C CNN
F 1 "1M" V 1300 1300 50  0000 C CNN
F 2 "Resistor_SMD:R_0603_1608Metric_Pad1.05x0.95mm_HandSolder" V 1230 1300 50  0001 C CNN
F 3 "" H 1300 1300 50  0000 C CNN
F 4 "C22935" V 1300 1300 50  0001 C CNN "LCSC"
	1    1300 1300
	0    1    1    0   
$EndComp
$Comp
L stm32newboard-rescue:+12V #PWR03
U 1 1 5769EDFB
P 10025 2775
F 0 "#PWR03" H 10025 2625 50  0001 C CNN
F 1 "+12V" H 10040 2948 50  0000 C CNN
F 2 "" H 10025 2775 50  0000 C CNN
F 3 "" H 10025 2775 50  0000 C CNN
	1    10025 2775
	1    0    0    -1  
$EndComp
Wire Wire Line
	8475 4900 8975 4900
Wire Wire Line
	8975 4800 8975 4900
Connection ~ 8975 4900
Wire Wire Line
	8975 5250 8975 5300
Wire Wire Line
	8475 5250 8475 5300
Wire Wire Line
	8475 4900 8475 4950
Wire Wire Line
	8875 2600 8875 2650
Wire Wire Line
	10025 3175 10025 3250
Wire Wire Line
	10025 3250 10325 3250
Connection ~ 10025 3250
Wire Wire Line
	10025 3650 10025 3725
Wire Wire Line
	1175 4625 1175 4650
Wire Wire Line
	10175 2050 10175 1925
Wire Wire Line
	10175 1625 10175 1500
Wire Wire Line
	10175 1200 10175 1050
Wire Wire Line
	2575 1300 2775 1300
Wire Wire Line
	3500 1750 3500 1675
Wire Wire Line
	3200 1725 3200 1900
Wire Wire Line
	3200 2275 3200 2350
Wire Wire Line
	3200 1900 3075 1900
Connection ~ 3200 1900
Wire Wire Line
	3125 1300 3200 1300
Connection ~ 3200 1300
Wire Wire Line
	3500 1375 3500 1300
Connection ~ 3500 1300
Wire Wire Line
	3750 1375 3750 1300
Connection ~ 3750 1300
Wire Wire Line
	3750 1675 3750 1750
Wire Wire Line
	10325 3250 10325 3350
Wire Wire Line
	10325 3650 10325 3700
Wire Wire Line
	1500 3875 1500 3900
Wire Wire Line
	2900 3575 2825 3575
Wire Wire Line
	1900 3675 2000 3675
Wire Wire Line
	2000 3675 2000 3900
Wire Wire Line
	2000 3900 1500 3900
Connection ~ 1500 3900
Wire Wire Line
	1025 3900 1025 3675
Wire Wire Line
	1025 3675 1100 3675
Wire Wire Line
	1025 3575 1100 3575
Connection ~ 1025 3675
Wire Wire Line
	1025 3475 1100 3475
Connection ~ 1025 3575
Wire Wire Line
	1225 1200 1475 1200
Wire Wire Line
	900  1200 900  1075
Wire Wire Line
	900  1200 925  1200
Wire Wire Line
	1475 1100 1375 1100
Wire Wire Line
	1375 1100 1375 1050
Wire Wire Line
	3200 1300 3200 1425
Wire Wire Line
	2575 1100 2600 1100
Wire Wire Line
	2600 1100 2600 950 
Wire Wire Line
	2575 1200 2675 1200
Wire Wire Line
	2675 1200 2675 950 
Wire Wire Line
	2675 950  2775 950 
Wire Wire Line
	2775 1275 2775 1300
Connection ~ 2775 1300
Wire Wire Line
	2775 950  2775 975 
Wire Wire Line
	1075 1525 1225 1525
Wire Wire Line
	1225 1400 1225 1525
Connection ~ 1225 1525
Wire Wire Line
	950  1400 1150 1400
Wire Wire Line
	1075 1850 1075 1875
Wire Wire Line
	1075 1875 1200 1875
Connection ~ 1225 1400
Wire Wire Line
	1075 1525 1075 1550
Wire Wire Line
	950  1400 950  1350
Wire Wire Line
	1200 1925 1200 1875
Connection ~ 1200 1875
Wire Notes Line
	650  625  650  2575
Wire Notes Line
	650  2575 4275 2575
Wire Notes Line
	4275 2575 4275 625 
Wire Notes Line
	4275 625  650  625 
Wire Wire Line
	2175 3150 2175 3100
Wire Wire Line
	1500 3100 2175 3100
Wire Wire Line
	2175 3450 2175 3475
Connection ~ 2175 3475
Wire Wire Line
	1900 3475 2175 3475
Wire Wire Line
	2825 3500 2825 3575
Connection ~ 2825 3575
Wire Wire Line
	2825 3100 2825 3200
Connection ~ 2175 3100
Connection ~ 1150 1400
Wire Wire Line
	1150 1300 1150 1400
$Comp
L stm32newboard-rescue:CONN_01X01 J4
U 1 1 5905FA23
P 1650 7175
F 0 "J4" H 1728 7216 50  0000 L CNN
F 1 "Hole" H 1728 7125 50  0000 L CNN
F 2 "MountingHole:MountingHole_2.2mm_M2" H 1650 7175 50  0001 C CNN
F 3 "" H 1650 7175 50  0001 C CNN
	1    1650 7175
	0    -1   -1   0   
$EndComp
$Comp
L stm32newboard-rescue:GND #PWR04
U 1 1 593DE02F
P 10025 3725
F 0 "#PWR04" H 10025 3475 50  0001 C CNN
F 1 "GND" H 10030 3552 50  0000 C CNN
F 2 "" H 10025 3725 50  0000 C CNN
F 3 "" H 10025 3725 50  0000 C CNN
	1    10025 3725
	1    0    0    -1  
$EndComp
$Comp
L stm32newboard-rescue:Q_PMOS_GSD Q1
U 1 1 594959A1
P 2025 2075
F 0 "Q1" V 2275 2075 50  0000 C CNN
F 1 "SI2319" V 2366 2075 50  0000 C CNN
F 2 "Package_TO_SOT_SMD:SOT-23_Handsoldering" H 2225 2175 50  0001 C CNN
F 3 "" H 2025 2075 50  0001 C CNN
F 4 " C558254" V 2025 2075 50  0001 C CNN "LCSC"
	1    2025 2075
	0    1    1    0   
$EndComp
Wire Wire Line
	2225 2175 2400 2175
Wire Wire Line
	2400 2175 2400 2150
$Comp
L stm32newboard-rescue:GND #PWR016
U 1 1 594967D8
P 2025 1800
F 0 "#PWR016" H 2025 1550 50  0001 C CNN
F 1 "GND" V 2030 1672 50  0000 R CNN
F 2 "" H 2025 1800 50  0001 C CNN
F 3 "" H 2025 1800 50  0001 C CNN
	1    2025 1800
	-1   0    0    1   
$EndComp
Wire Wire Line
	2025 1800 2025 1875
$Comp
L stm32newboard-rescue:+12V #PWR015
U 1 1 594970E6
P 1725 2150
F 0 "#PWR015" H 1725 2000 50  0001 C CNN
F 1 "+12V" H 1700 2000 50  0000 C CNN
F 2 "" H 1725 2150 50  0000 C CNN
F 3 "" H 1725 2150 50  0000 C CNN
	1    1725 2150
	1    0    0    -1  
$EndComp
Wire Wire Line
	1825 2175 1800 2175
Wire Wire Line
	1725 2175 1725 2150
Text GLabel 2400 2150 1    60   Input ~ 0
BAT_VCC
Text GLabel 1175 4525 0    60   Input ~ 0
BAT_VCC
$Comp
L stm32newboard-rescue:PWR_FLAG #FLG04
U 1 1 594988A0
P 1800 2100
F 0 "#FLG04" H 1800 2175 50  0001 C CNN
F 1 "PWR_FLAG" H 1800 2274 50  0000 C CNN
F 2 "" H 1800 2100 50  0001 C CNN
F 3 "" H 1800 2100 50  0001 C CNN
	1    1800 2100
	1    0    0    -1  
$EndComp
Wire Wire Line
	1800 2100 1800 2175
Connection ~ 1800 2175
Wire Wire Line
	1450 1300 1475 1300
$Comp
L stm32newboard-rescue:PWR_FLAG #FLG03
U 1 1 59499FF3
P 1475 1275
F 0 "#FLG03" H 1475 1350 50  0001 C CNN
F 1 "PWR_FLAG" H 1400 1400 50  0000 C CNN
F 2 "" H 1475 1275 50  0001 C CNN
F 3 "" H 1475 1275 50  0001 C CNN
	1    1475 1275
	1    0    0    -1  
$EndComp
Wire Wire Line
	1475 1300 1475 1275
Wire Wire Line
	8975 4900 8975 4950
Wire Wire Line
	10025 3250 10025 3350
Wire Wire Line
	3200 1900 3200 1975
Wire Wire Line
	3200 1300 3500 1300
Wire Wire Line
	3500 1300 3750 1300
Wire Wire Line
	3750 1300 3875 1300
Wire Wire Line
	1500 3900 1500 3925
Wire Wire Line
	1500 3900 1025 3900
Wire Wire Line
	1025 3675 1025 3575
Wire Wire Line
	1025 3575 1025 3475
Wire Wire Line
	2775 1300 2825 1300
Wire Wire Line
	1225 1525 1350 1525
Wire Wire Line
	1225 1400 1475 1400
Wire Wire Line
	1200 1875 1350 1875
Wire Wire Line
	2175 3475 2250 3475
Wire Wire Line
	2825 3575 1900 3575
Wire Wire Line
	2175 3100 2825 3100
Wire Wire Line
	1150 1400 1225 1400
Wire Wire Line
	1800 2175 1725 2175
Wire Wire Line
	10025 2775 10025 2875
Wire Wire Line
	1500 3100 1500 3125
$Comp
L MCU_ST_STM32F0:STM32F042F4Px U4
U 1 1 5F2EBE42
P 6600 5050
F 0 "U4" H 6600 4161 50  0000 C CNN
F 1 "STM32F042F4Px" H 6775 4275 50  0000 C CNN
F 2 "Package_SO:TSSOP-20_4.4x6.5mm_P0.65mm" H 6100 4350 50  0001 R CNN
F 3 "http://www.st.com/st-web-ui/static/active/en/resource/technical/document/datasheet/DM00105814.pdf" H 6600 5050 50  0001 C CNN
F 4 " C81000" H 6600 5050 50  0001 C CNN "LCSC"
	1    6600 5050
	1    0    0    -1  
$EndComp
Wire Wire Line
	5875 5650 5875 5725
Wire Wire Line
	6000 5650 5875 5650
Wire Wire Line
	6400 4350 6400 4300
Wire Wire Line
	6400 4300 6500 4300
Wire Wire Line
	6500 4300 6500 4350
Connection ~ 6400 4300
Wire Wire Line
	6400 4300 6400 4200
Text GLabel 6000 5350 0    60   Input ~ 0
I2C_CLK
Text GLabel 6000 5250 0    60   Input ~ 0
I2C_DATA
Connection ~ 1500 3125
Wire Wire Line
	1500 3125 1500 3275
Text GLabel 6000 5550 0    60   Input ~ 0
LED1
Text GLabel 7200 5450 2    60   Input ~ 0
USBDP_OR_USART1_RX
Text GLabel 7200 5350 2    60   Input ~ 0
USBDM_OR_USART1_TX
$Comp
L stm32newboard-rescue:+5V #PWR032
U 1 1 5F45A074
P 2050 5700
F 0 "#PWR032" H 2050 5550 50  0001 C CNN
F 1 "+5V" V 2075 5800 50  0000 L CNN
F 2 "" H 2050 5700 50  0001 C CNN
F 3 "" H 2050 5700 50  0001 C CNN
	1    2050 5700
	1    0    0    -1  
$EndComp
$Comp
L stm32newboard-rescue:CONN_01X05 P6
U 1 1 5F4744B2
P 2150 5900
F 0 "P6" H 2228 5941 50  0000 L CNN
F 1 "BT HC06" H 2228 5850 50  0000 L CNN
F 2 "Connector_PinHeader_2.54mm:PinHeader_1x05_P2.54mm_Vertical" H 2150 5900 50  0001 C CNN
F 3 "" H 2150 5900 50  0000 C CNN
	1    2150 5900
	0    -1   1    0   
$EndComp
$Comp
L stm32newboard-rescue:GND #PWR033
U 1 1 593535B2
P 3025 4950
F 0 "#PWR033" H 3025 4700 50  0001 C CNN
F 1 "GND" H 3030 4777 50  0000 C CNN
F 2 "" H 3025 4950 50  0000 C CNN
F 3 "" H 3025 4950 50  0000 C CNN
	1    3025 4950
	0    -1   -1   0   
$EndComp
Text GLabel 2250 5700 1    60   Input ~ 0
USBDP_OR_USART1_RX
Text GLabel 7200 4950 2    60   Input ~ 0
BT_SWITCH
Text GLabel 7200 5050 2    60   Input ~ 0
12V_SWITCH
$Comp
L Transistor_FET:FDS6930B Q2
U 2 1 5F4B936E
P 7575 2975
F 0 "Q2" H 7780 3021 50  0000 L CNN
F 1 "FDS6930B" H 7780 2930 50  0000 L CNN
F 2 "Package_SO:SOIC-8_3.9x4.9mm_P1.27mm" H 7775 2900 50  0001 L CIN
F 3 "http://www.onsemi.com/pub/Collateral/FDS6930B-D.PDF" H 7575 2975 50  0001 L CNN
F 4 " C10440" H 7575 2975 50  0001 C CNN "LCSC"
	2    7575 2975
	1    0    0    -1  
$EndComp
$Comp
L Transistor_FET:FDS6930B Q2
U 1 1 5F4BDC25
P 7550 1375
F 0 "Q2" H 7755 1421 50  0000 L CNN
F 1 "FDS6930B" H 7755 1330 50  0000 L CNN
F 2 "Package_SO:SOIC-8_3.9x4.9mm_P1.27mm" H 7750 1300 50  0001 L CIN
F 3 "http://www.onsemi.com/pub/Collateral/FDS6930B-D.PDF" H 7550 1375 50  0001 L CNN
	1    7550 1375
	1    0    0    -1  
$EndComp
$Comp
L stm32newboard-rescue:GND #PWR028
U 1 1 5F4DBDEA
P 7650 1575
F 0 "#PWR028" H 7650 1325 50  0001 C CNN
F 1 "GND" H 7655 1402 50  0000 C CNN
F 2 "" H 7650 1575 50  0000 C CNN
F 3 "" H 7650 1575 50  0000 C CNN
	1    7650 1575
	1    0    0    -1  
$EndComp
Wire Wire Line
	6025 1700 6025 1800
Text GLabel 7675 2775 1    60   Input ~ 0
12V_LOAD
$Comp
L stm32newboard-rescue:GND #PWR029
U 1 1 5F586DF6
P 7675 3175
F 0 "#PWR029" H 7675 2925 50  0001 C CNN
F 1 "GND" H 7680 3002 50  0000 C CNN
F 2 "" H 7675 3175 50  0000 C CNN
F 3 "" H 7675 3175 50  0000 C CNN
	1    7675 3175
	1    0    0    -1  
$EndComp
Text GLabel 7200 2975 0    60   Input ~ 0
12V_SWITCH
$Comp
L stm32newboard-rescue:R R12
U 1 1 5F592254
P 7275 3125
F 0 "R12" H 7345 3171 50  0000 L CNN
F 1 "10k" H 7345 3080 50  0000 L CNN
F 2 "Resistor_SMD:R_0603_1608Metric_Pad1.05x0.95mm_HandSolder" V 7205 3125 50  0001 C CNN
F 3 "" H 7275 3125 50  0001 C CNN
F 4 "C25804" H 7275 3125 50  0001 C CNN "LCSC"
	1    7275 3125
	1    0    0    -1  
$EndComp
$Comp
L stm32newboard-rescue:GND #PWR024
U 1 1 5F592E2E
P 7275 3275
F 0 "#PWR024" H 7275 3025 50  0001 C CNN
F 1 "GND" H 7280 3102 50  0000 C CNN
F 2 "" H 7275 3275 50  0000 C CNN
F 3 "" H 7275 3275 50  0000 C CNN
	1    7275 3275
	1    0    0    -1  
$EndComp
Wire Wire Line
	7200 2975 7275 2975
Wire Wire Line
	7275 2975 7375 2975
Connection ~ 7275 2975
$Comp
L stm32newboard-rescue:R R7
U 1 1 5F5A1E7A
P 7225 1525
F 0 "R7" H 7295 1571 50  0000 L CNN
F 1 "10k" H 7295 1480 50  0000 L CNN
F 2 "Resistor_SMD:R_0603_1608Metric_Pad1.05x0.95mm_HandSolder" V 7155 1525 50  0001 C CNN
F 3 "" H 7225 1525 50  0001 C CNN
F 4 "C25804" H 7225 1525 50  0001 C CNN "LCSC"
	1    7225 1525
	1    0    0    -1  
$EndComp
Wire Wire Line
	7075 1375 7225 1375
Wire Wire Line
	7225 1375 7350 1375
Connection ~ 7225 1375
$Comp
L stm32newboard-rescue:GND #PWR022
U 1 1 5F5B5662
P 7225 1675
F 0 "#PWR022" H 7225 1425 50  0001 C CNN
F 1 "GND" H 7230 1502 50  0000 C CNN
F 2 "" H 7225 1675 50  0000 C CNN
F 3 "" H 7225 1675 50  0000 C CNN
	1    7225 1675
	1    0    0    -1  
$EndComp
$Comp
L stm32newboard-rescue:GND #PWR013
U 1 1 5F67D3C6
P 6400 5850
F 0 "#PWR013" H 6400 5600 50  0001 C CNN
F 1 "GND" H 6405 5677 50  0000 C CNN
F 2 "" H 6400 5850 50  0000 C CNN
F 3 "" H 6400 5850 50  0000 C CNN
	1    6400 5850
	1    0    0    -1  
$EndComp
Text GLabel 2150 5700 1    60   Input ~ 0
BT_LOAD
Wire Notes Line
	6350 675  9650 675 
Wire Notes Line
	9650 675  9650 2025
Wire Notes Line
	9650 2025 6325 2025
Wire Notes Line
	6325 2025 6325 675 
Wire Notes Line
	6325 2200 6325 3625
Wire Notes Line
	6325 3625 9650 3625
Wire Notes Line
	9650 3625 9650 2200
Wire Notes Line
	9650 2200 6325 2200
$Comp
L Connector:Conn_01x04_Female J5
U 1 1 5F7752CD
P 1125 5100
F 0 "J5" V 1063 4812 50  0000 R CNN
F 1 "RS485" V 972 4812 50  0000 R CNN
F 2 "Connector_PinHeader_2.54mm:PinHeader_1x04_P2.54mm_Vertical" H 1125 5100 50  0001 C CNN
F 3 "~" H 1125 5100 50  0001 C CNN
	1    1125 5100
	0    -1   -1   0   
$EndComp
Text GLabel 1225 5300 3    60   Input ~ 0
USART2_TX
Text GLabel 1125 5300 3    60   Input ~ 0
USART2_RX
$Comp
L stm32newboard-rescue:+3V3 #PWR027
U 1 1 5F789BAD
P 950 5400
F 0 "#PWR027" H 950 5250 50  0001 C CNN
F 1 "+3V3" H 975 5550 50  0000 C CNN
F 2 "" H 950 5400 50  0000 C CNN
F 3 "" H 950 5400 50  0000 C CNN
	1    950  5400
	0    -1   -1   0   
$EndComp
$Comp
L stm32newboard-rescue:GND #PWR030
U 1 1 5F78ABF4
P 1375 5400
F 0 "#PWR030" H 1375 5150 50  0001 C CNN
F 1 "GND" H 1380 5227 50  0000 C CNN
F 2 "" H 1375 5400 50  0000 C CNN
F 3 "" H 1375 5400 50  0000 C CNN
	1    1375 5400
	0    -1   -1   0   
$EndComp
Wire Wire Line
	1375 5400 1325 5400
Wire Wire Line
	1325 5400 1325 5300
Wire Wire Line
	1025 5300 1025 5400
Wire Wire Line
	1025 5400 950  5400
Text GLabel 7200 5250 2    60   Input ~ 0
BT_CONTROL
Text GLabel 1950 5700 1    60   Input ~ 0
BT_CONTROL
$Comp
L power:GND #PWR0101
U 1 1 5F83358A
P 8975 5300
F 0 "#PWR0101" H 8975 5050 50  0001 C CNN
F 1 "GND" H 8980 5127 50  0000 C CNN
F 2 "" H 8975 5300 50  0001 C CNN
F 3 "" H 8975 5300 50  0001 C CNN
	1    8975 5300
	1    0    0    -1  
$EndComp
Text GLabel 7200 4650 2    60   Input ~ 0
PA1
Text GLabel 7200 5150 2    60   Input ~ 0
PA6
Connection ~ 1475 1300
Wire Wire Line
	5875 1700 6025 1700
Wire Wire Line
	5400 1075 5400 1150
Wire Wire Line
	4800 1700 5100 1700
Wire Wire Line
	5400 1150 5400 1400
Wire Wire Line
	5400 1150 5525 1150
Connection ~ 5875 1700
Wire Wire Line
	5875 1150 5875 1700
Wire Wire Line
	5825 1150 5875 1150
Connection ~ 5400 1075
Wire Wire Line
	5450 1075 5400 1075
Wire Wire Line
	4800 1150 4800 1225
Connection ~ 5400 1150
Wire Wire Line
	5400 1025 5400 1075
Wire Wire Line
	4800 1150 5400 1150
Wire Wire Line
	4800 1700 4800 1525
Wire Wire Line
	5700 1700 5875 1700
$Comp
L stm32newboard-rescue:+5V #PWR01
U 1 1 58E91684
P 4650 1700
F 0 "#PWR01" H 4650 1550 50  0001 C CNN
F 1 "+5V" V 4665 1828 50  0000 L CNN
F 2 "" H 4650 1700 50  0000 C CNN
F 3 "" H 4650 1700 50  0000 C CNN
	1    4650 1700
	0    -1   -1   0   
$EndComp
$Comp
L stm32newboard-rescue:PWR_FLAG #FLG02
U 1 1 5870F280
P 5450 1075
F 0 "#FLG02" H 5450 1150 50  0001 C CNN
F 1 "PWR_FLAG" V 5450 1203 50  0000 L CNN
F 2 "" H 5450 1075 50  0000 C CNN
F 3 "" H 5450 1075 50  0000 C CNN
	1    5450 1075
	0    1    1    0   
$EndComp
$Comp
L stm32newboard-rescue:MCP1702T U2
U 1 1 586FB4D3
P 5400 1700
F 0 "U2" H 5400 1874 50  0000 C CNN
F 1 "MCP1702T" H 5400 1965 50  0000 C CNN
F 2 "Package_TO_SOT_SMD:SOT-23_Handsoldering" H 5450 1950 50  0001 C CNN
F 3 "" H 5400 1650 50  0000 C CNN
F 4 "C33844" H 5400 1700 50  0001 C CNN "LCSC"
	1    5400 1700
	-1   0    0    1   
$EndComp
$Comp
L stm32newboard-rescue:C C3
U 1 1 57670FB7
P 5675 1150
F 0 "C3" H 5790 1196 50  0000 L CNN
F 1 "1uF" H 5790 1105 50  0000 L CNN
F 2 "Capacitor_SMD:C_0603_1608Metric" H 5713 1000 50  0001 C CNN
F 3 "" H 5675 1150 50  0000 C CNN
F 4 "C15849" H 5675 1150 50  0001 C CNN "LCSC"
	1    5675 1150
	0    1    1    0   
$EndComp
$Comp
L stm32newboard-rescue:C C1
U 1 1 57670D9A
P 4800 1375
F 0 "C1" H 4915 1421 50  0000 L CNN
F 1 "1uF" H 4915 1330 50  0000 L CNN
F 2 "Capacitor_SMD:C_0603_1608Metric" H 4838 1225 50  0001 C CNN
F 3 "" H 4800 1375 50  0000 C CNN
F 4 "C15849" H 4800 1375 50  0001 C CNN "LCSC"
	1    4800 1375
	1    0    0    -1  
$EndComp
Wire Notes Line
	4325 625  4325 2150
Wire Notes Line
	4325 2150 6200 2150
Wire Notes Line
	6200 2150 6200 625 
Wire Notes Line
	6200 625  4325 625 
Text Notes 4425 800  0    60   ~ 0
LDO
Text Notes 3450 775  0    60   ~ 0
Buck 12v to 5v
Wire Wire Line
	4650 1700 4800 1700
Connection ~ 4800 1700
Wire Notes Line
	675  4175 3875 4175
Wire Notes Line
	3875 4175 3875 2725
Wire Notes Line
	3875 2725 675  2725
Wire Notes Line
	675  2725 675  4175
Text Notes 3375 2900 0    60   ~ 0
EEprom
Wire Notes Line
	9800 675  9800 2300
Wire Notes Line
	9800 2300 10850 2300
Wire Notes Line
	10850 2300 10850 675 
Wire Notes Line
	10850 675  9800 675 
Text Notes 10575 875  0    60   ~ 0
LED
Wire Notes Line
	11025 4075 11025 2450
Wire Notes Line
	11025 2450 9800 2450
Text Notes 10625 2625 0    60   ~ 0
ANALOG
Wire Wire Line
	10325 3250 10425 3250
Connection ~ 10325 3250
Text Notes 8400 4825 0    60   ~ 0
STM32 Filter
Wire Notes Line
	675  6800 675  7575
Wire Notes Line
	675  7575 1875 7575
Wire Notes Line
	1875 7575 1875 6800
Wire Notes Line
	1875 6800 675  6800
Text Notes 1075 6900 0    60   ~ 0
2M holes
Wire Wire Line
	8475 5300 8975 5300
Connection ~ 8975 5300
Wire Notes Line
	11025 4075 9800 4075
Wire Notes Line
	9800 4075 9800 2450
Wire Wire Line
	1275 4625 1175 4625
Wire Wire Line
	1175 4525 1275 4525
$Comp
L Connector:Screw_Terminal_01x02 P1
U 1 1 5FA28BAF
P 1475 4525
F 0 "P1" H 1555 4517 50  0000 L CNN
F 1 "Input" H 1555 4426 50  0000 L CNN
F 2 "TerminalBlock_Phoenix:TerminalBlock_Phoenix_MKDS-1,5-2-5.08_1x02_P5.08mm_Horizontal" H 1475 4525 50  0001 C CNN
F 3 "~" H 1475 4525 50  0001 C CNN
	1    1475 4525
	1    0    0    -1  
$EndComp
$Comp
L Connector:Conn_01x02_Female J6
U 1 1 5F84159E
P 975 6050
F 0 "J6" V 913 5862 50  0000 R CNN
F 1 "GPIO" V 822 5862 50  0000 R CNN
F 2 "Connector_PinHeader_2.54mm:PinHeader_1x02_P2.54mm_Vertical" H 975 6050 50  0001 C CNN
F 3 "~" H 975 6050 50  0001 C CNN
	1    975  6050
	0    -1   -1   0   
$EndComp
Text GLabel 975  6250 3    60   Input ~ 0
PA1
Text GLabel 1075 6250 3    60   Input ~ 0
PA6
Text GLabel 2350 5700 1    60   Input ~ 0
USBDM_OR_USART1_TX
$Comp
L Connector_Generic:Conn_01x04 J7
U 1 1 5FAC2985
P 3275 6150
F 0 "J7" H 3355 6142 50  0000 L CNN
F 1 "SWD" H 3355 6051 50  0000 L CNN
F 2 "Connector_PinHeader_2.54mm:PinHeader_1x04_P2.54mm_Vertical" H 3275 6150 50  0001 C CNN
F 3 "~" H 3275 6150 50  0001 C CNN
	1    3275 6150
	-1   0    0    1   
$EndComp
Text GLabel 6000 4550 0    60   Input ~ 0
NRST
Text GLabel 3475 5950 2    60   Input ~ 0
NRST
$Comp
L Connector:Screw_Terminal_01x02 P3
U 1 1 5FB24D97
P 9150 2500
F 0 "P3" H 9230 2492 50  0000 L CNN
F 1 "LOAD1" H 9230 2401 50  0000 L CNN
F 2 "TerminalBlock_Phoenix:TerminalBlock_Phoenix_MKDS-1,5-2-5.08_1x02_P5.08mm_Horizontal" H 9150 2500 50  0001 C CNN
F 3 "~" H 9150 2500 50  0001 C CNN
	1    9150 2500
	1    0    0    -1  
$EndComp
Wire Wire Line
	8875 2600 8950 2600
Wire Wire Line
	8825 2500 8950 2500
Wire Notes Line
	4900 3900 4900 6425
Wire Notes Line
	4900 6425 9600 6425
Wire Notes Line
	9600 6425 9600 3900
Wire Notes Line
	9600 3900 4900 3900
Text Notes 9300 4125 0    60   ~ 0
MCU
Wire Notes Line
	700  4300 700  6650
Wire Notes Line
	700  6650 4425 6650
Wire Notes Line
	4425 6650 4425 4300
Wire Notes Line
	4425 4300 700  4300
Text Notes 4650 1000 0    60   ~ 0
HG
Wire Wire Line
	3475 6250 3600 6250
Wire Wire Line
	3600 6250 3600 6300
$Comp
L pspice:DIODE D2
U 1 1 61A197E2
P 8875 2850
F 0 "D2" V 8921 2722 50  0000 R CNN
F 1 "DIODE" V 8830 2722 50  0000 R CNN
F 2 "Diode_SMD:D_SMA" H 8875 2850 50  0001 C CNN
F 3 "~" H 8875 2850 50  0001 C CNN
F 4 "C364286" V 8875 2850 50  0001 C CNN "LCSC"
	1    8875 2850
	0    -1   -1   0   
$EndComp
Wire Wire Line
	8875 3050 8875 3200
Wire Wire Line
	1350 1875 1350 1850
Wire Wire Line
	1350 1525 1350 1550
$Comp
L stm32newboard-rescue:PWR_FLAG #FLG0101
U 1 1 61A006BF
P 3750 1300
F 0 "#FLG0101" H 3750 1375 50  0001 C CNN
F 1 "PWR_FLAG" H 3675 1425 50  0000 C CNN
F 2 "" H 3750 1300 50  0001 C CNN
F 3 "" H 3750 1300 50  0001 C CNN
	1    3750 1300
	1    0    0    -1  
$EndComp
$EndSCHEMATC
