EESchema Schematic File Version 2
LIBS:rfcontroller-rescue
LIBS:power
LIBS:device
LIBS:transistors
LIBS:conn
LIBS:linear
LIBS:regul
LIBS:74xx
LIBS:cmos4000
LIBS:adc-dac
LIBS:memory
LIBS:xilinx
LIBS:microcontrollers
LIBS:dsp
LIBS:microchip
LIBS:analog_switches
LIBS:motorola
LIBS:texas
LIBS:intel
LIBS:audio
LIBS:interface
LIBS:digital-audio
LIBS:philips
LIBS:display
LIBS:cypress
LIBS:siliconi
LIBS:opto
LIBS:atmel
LIBS:contrib
LIBS:valves
LIBS:stm32
LIBS:mike7b4
LIBS:rfcontroller-cache
EELAYER 26 0
EELAYER END
$Descr A4 11693 8268
encoding utf-8
Sheet 1 1
Title "rfcontroller"
Date ""
Rev "2"
Comp "mike7b4"
Comment1 ""
Comment2 ""
Comment3 ""
Comment4 ""
$EndDescr
$Comp
L C C12
U 1 1 5766DF9B
P 9500 1325
F 0 "C12" H 9615 1371 50  0000 L CNN
F 1 "100nF" H 9615 1280 50  0000 L CNN
F 2 "Capacitors_SMD:C_0603_HandSoldering" H 9538 1175 50  0001 C CNN
F 3 "" H 9500 1325 50  0000 C CNN
	1    9500 1325
	1    0    0    -1  
$EndComp
$Comp
L C C13
U 1 1 5766E0FD
P 10000 1325
F 0 "C13" H 10115 1371 50  0000 L CNN
F 1 "100nF" H 10115 1280 50  0000 L CNN
F 2 "Capacitors_SMD:C_0603_HandSoldering" H 10038 1175 50  0001 C CNN
F 3 "" H 10000 1325 50  0000 C CNN
	1    10000 1325
	1    0    0    -1  
$EndComp
$Comp
L C C14
U 1 1 5766E144
P 10500 1325
F 0 "C14" H 10615 1371 50  0000 L CNN
F 1 "100nF" H 10615 1280 50  0000 L CNN
F 2 "Capacitors_SMD:C_0603_HandSoldering" H 10538 1175 50  0001 C CNN
F 3 "" H 10500 1325 50  0000 C CNN
	1    10500 1325
	1    0    0    -1  
$EndComp
$Comp
L +12V #PWR01
U 1 1 5766E18E
P 2825 1375
F 0 "#PWR01" H 2825 1225 50  0001 C CNN
F 1 "+12V" H 2800 1225 50  0000 C CNN
F 2 "" H 2825 1375 50  0000 C CNN
F 3 "" H 2825 1375 50  0000 C CNN
	1    2825 1375
	1    0    0    -1  
$EndComp
$Comp
L +3V3 #PWR02
U 1 1 5766E1AE
P 10000 1025
F 0 "#PWR02" H 10000 875 50  0001 C CNN
F 1 "+3V3" H 10000 1175 50  0000 C CNN
F 2 "" H 10000 1025 50  0000 C CNN
F 3 "" H 10000 1025 50  0000 C CNN
	1    10000 1025
	1    0    0    -1  
$EndComp
$Comp
L GND #PWR03
U 1 1 5766E1CE
P 10000 1625
F 0 "#PWR03" H 10000 1375 50  0001 C CNN
F 1 "GND" H 10005 1452 50  0000 C CNN
F 2 "" H 10000 1625 50  0000 C CNN
F 3 "" H 10000 1625 50  0000 C CNN
	1    10000 1625
	1    0    0    -1  
$EndComp
$Comp
L GND #PWR04
U 1 1 5767067E
P 6375 6025
F 0 "#PWR04" H 6375 5775 50  0001 C CNN
F 1 "GND" H 6380 5852 50  0000 C CNN
F 2 "" H 6375 6025 50  0000 C CNN
F 3 "" H 6375 6025 50  0000 C CNN
	1    6375 6025
	1    0    0    -1  
$EndComp
$Comp
L C C1
U 1 1 57670D9A
P 1100 1175
F 0 "C1" H 1215 1221 50  0000 L CNN
F 1 "1uF" H 1215 1130 50  0000 L CNN
F 2 "Capacitors_SMD:C_0805_HandSoldering" H 1138 1025 50  0001 C CNN
F 3 "" H 1100 1175 50  0000 C CNN
	1    1100 1175
	1    0    0    -1  
$EndComp
$Comp
L C C3
U 1 1 57670FB7
P 1975 950
F 0 "C3" H 2090 996 50  0000 L CNN
F 1 "1uF" H 2090 905 50  0000 L CNN
F 2 "Capacitors_SMD:C_0805_HandSoldering" H 2013 800 50  0001 C CNN
F 3 "" H 1975 950 50  0000 C CNN
	1    1975 950 
	0    1    1    0   
$EndComp
$Comp
L GND #PWR05
U 1 1 57671772
P 800 6425
F 0 "#PWR05" H 800 6175 50  0001 C CNN
F 1 "GND" H 805 6252 50  0000 C CNN
F 2 "" H 800 6425 50  0000 C CNN
F 3 "" H 800 6425 50  0000 C CNN
	1    800  6425
	0    1    1    0   
$EndComp
Text GLabel 7375 4325 2    60   Input ~ 0
SWDCLK
Text GLabel 7400 1475 1    60   Input ~ 0
SWDCLK
Text GLabel 7375 4425 2    60   Input ~ 0
SWDIO
Text GLabel 7300 1475 1    60   Input ~ 0
SWDIO
Text Notes 10150 1075 0    60   ~ 0
STM32 caps
$Comp
L CONN_02X04 P4
U 1 1 57674742
P 5325 7150
F 0 "P4" V 5279 7378 50  0000 L CNN
F 1 "NRF24LO+" H 5375 7475 50  0000 L CNN
F 2 "Pin_Headers:Pin_Header_Straight_2x04" H 5325 5950 50  0001 C CNN
F 3 "" H 5325 5950 50  0000 C CNN
	1    5325 7150
	1    0    0    -1  
$EndComp
$Comp
L +3V3 #PWR06
U 1 1 57674C6E
P 5725 7000
F 0 "#PWR06" H 5725 6850 50  0001 C CNN
F 1 "+3V3" H 5740 7173 50  0000 C CNN
F 2 "" H 5725 7000 50  0000 C CNN
F 3 "" H 5725 7000 50  0000 C CNN
	1    5725 7000
	0    1    1    0   
$EndComp
$Comp
L GND #PWR07
U 1 1 57674CB1
P 5075 7000
F 0 "#PWR07" H 5075 6750 50  0001 C CNN
F 1 "GND" H 5080 6827 50  0000 C CNN
F 2 "" H 5075 7000 50  0000 C CNN
F 3 "" H 5075 7000 50  0000 C CNN
	1    5075 7000
	0    1    1    0   
$EndComp
Text GLabel 5575 7200 2    60   Input ~ 0
SPI_MOSI
Text GLabel 5075 7100 0    60   Input ~ 0
RF_CE_ESP_RST
Text GLabel 8375 3650 2    60   Input ~ 0
USBDP
Text GLabel 7375 4525 2    60   Input ~ 0
USBDP
Text GLabel 7375 4625 2    60   Input ~ 0
USBDM
Text GLabel 8375 3750 2    60   Input ~ 0
USBDM
Text GLabel 5575 7100 2    60   Input ~ 0
RF_CSN
$Comp
L FDS6930 U5
U 1 1 57684C63
P 9700 2850
F 0 "U5" H 9700 3290 60  0000 C CNN
F 1 "FDS6930" H 9700 3184 60  0000 C CNN
F 2 "Power_Integrations:SO-8" H 9300 3000 60  0001 C CNN
F 3 "" H 9300 3000 60  0001 C CNN
	1    9700 2850
	1    0    0    -1  
$EndComp
Text GLabel 10650 2900 2    60   Input ~ 0
LOAD_SW2
Text GLabel 10350 2700 2    60   Input ~ 0
LOAD_SW1
Text GLabel 5675 6025 3    60   Input ~ 0
RF_IRQ
$Comp
L GND #PWR08
U 1 1 5768760E
P 10325 3000
F 0 "#PWR08" H 10325 2750 50  0001 C CNN
F 1 "GND" H 10330 2827 50  0000 C CNN
F 2 "" H 10325 3000 50  0000 C CNN
F 3 "" H 10325 3000 50  0000 C CNN
	1    10325 3000
	0    -1   -1   0   
$EndComp
$Comp
L GND #PWR09
U 1 1 57687697
P 10325 2800
F 0 "#PWR09" H 10325 2550 50  0001 C CNN
F 1 "GND" H 10330 2627 50  0000 C CNN
F 2 "" H 10325 2800 50  0000 C CNN
F 3 "" H 10325 2800 50  0000 C CNN
	1    10325 2800
	0    -1   -1   0   
$EndComp
Text GLabel 9150 2750 0    60   Input ~ 0
LOAD1
Text GLabel 9150 2950 0    60   Input ~ 0
LOAD2
$Comp
L CONN_01X02 P6
U 1 1 57688B29
P 10150 5675
F 0 "P6" H 10227 5716 50  0000 L CNN
F 1 "BAT" H 10227 5625 50  0000 L CNN
F 2 "Connectors_Terminal_Blocks:TerminalBlock_Pheonix_MKDS1.5-2pol" H 10150 5675 50  0001 C CNN
F 3 "" H 10150 5675 50  0000 C CNN
	1    10150 5675
	1    0    0    1   
$EndComp
$Comp
L CONN_01X02 P7
U 1 1 57688C17
P 10175 4275
F 0 "P7" H 10252 4316 50  0000 L CNN
F 1 "OUT1" H 10252 4225 50  0000 L CNN
F 2 "Terminal_Blocks:TerminalBlock_Pheonix_MKDS1.5-2pol" H 10175 4275 50  0001 C CNN
F 3 "" H 10175 4275 50  0000 C CNN
	1    10175 4275
	1    0    0    -1  
$EndComp
Text GLabel 9850 4225 0    60   Input ~ 0
LOAD1
$Comp
L +12V #PWR010
U 1 1 57689418
P 9900 4375
F 0 "#PWR010" H 9900 4225 50  0001 C CNN
F 1 "+12V" H 9915 4548 50  0000 C CNN
F 2 "" H 9900 4375 50  0000 C CNN
F 3 "" H 9900 4375 50  0000 C CNN
	1    9900 4375
	-1   0    0    1   
$EndComp
$Comp
L CONN_01X02 P8
U 1 1 5768A330
P 10175 4850
F 0 "P8" H 10252 4891 50  0000 L CNN
F 1 "OUT2" H 10252 4800 50  0000 L CNN
F 2 "Terminal_Blocks:TerminalBlock_Pheonix_MKDS1.5-2pol" H 10175 4850 50  0001 C CNN
F 3 "" H 10175 4850 50  0000 C CNN
	1    10175 4850
	1    0    0    -1  
$EndComp
Text GLabel 9850 4800 0    60   Input ~ 0
LOAD2
$Comp
L +12V #PWR011
U 1 1 5768A337
P 9900 4950
F 0 "#PWR011" H 9900 4800 50  0001 C CNN
F 1 "+12V" H 9915 5123 50  0000 C CNN
F 2 "" H 9900 4950 50  0000 C CNN
F 3 "" H 9900 4950 50  0000 C CNN
	1    9900 4950
	-1   0    0    1   
$EndComp
Text GLabel 4675 4825 0    60   Input ~ 0
AN_BATTERY
Text GLabel 5775 6025 3    60   Input ~ 0
RF_CSN
$Comp
L C C8
U 1 1 576A33DD
P 3300 4175
F 0 "C8" H 3415 4221 50  0000 L CNN
F 1 "10pF" H 3415 4130 50  0000 L CNN
F 2 "Capacitors_SMD:C_0603_HandSoldering" H 3338 4025 50  0001 C CNN
F 3 "" H 3300 4175 50  0000 C CNN
	1    3300 4175
	0    -1   -1   0   
$EndComp
$Comp
L C C7
U 1 1 576A34FD
P 3250 4625
F 0 "C7" H 3365 4671 50  0000 L CNN
F 1 "10pF" H 3365 4580 50  0000 L CNN
F 2 "Capacitors_SMD:C_0603_HandSoldering" H 3288 4475 50  0001 C CNN
F 3 "" H 3250 4625 50  0000 C CNN
	1    3250 4625
	0    -1   -1   0   
$EndComp
$Comp
L GND #PWR012
U 1 1 576A36F6
P 3025 4175
F 0 "#PWR012" H 3025 3925 50  0001 C CNN
F 1 "GND" H 3030 4002 50  0000 C CNN
F 2 "" H 3025 4175 50  0000 C CNN
F 3 "" H 3025 4175 50  0000 C CNN
	1    3025 4175
	0    1    1    0   
$EndComp
$Comp
L GND #PWR013
U 1 1 576A3785
P 3025 4625
F 0 "#PWR013" H 3025 4375 50  0001 C CNN
F 1 "GND" H 3030 4452 50  0000 C CNN
F 2 "" H 3025 4625 50  0000 C CNN
F 3 "" H 3025 4625 50  0000 C CNN
	1    3025 4625
	0    1    1    0   
$EndComp
Text GLabel 1475 2775 2    60   Input ~ 0
AN_BATTERY
$Comp
L R R2
U 1 1 5769E0ED
P 1025 3025
F 0 "R2" H 1095 3071 50  0000 L CNN
F 1 "R" H 1095 2980 50  0000 L CNN
F 2 "Resistors_SMD:R_0603_HandSoldering" V 955 3025 50  0001 C CNN
F 3 "" H 1025 3025 50  0000 C CNN
	1    1025 3025
	1    0    0    -1  
$EndComp
$Comp
L R R1
U 1 1 5769DFC4
P 1025 2550
F 0 "R1" H 1095 2596 50  0000 L CNN
F 1 "R" H 1095 2505 50  0000 L CNN
F 2 "Resistors_SMD:R_0603_HandSoldering" V 955 2550 50  0001 C CNN
F 3 "" H 1025 2550 50  0000 C CNN
	1    1025 2550
	1    0    0    -1  
$EndComp
$Comp
L GND #PWR014
U 1 1 576EB0C3
P 1700 825
F 0 "#PWR014" H 1700 575 50  0001 C CNN
F 1 "GND" H 1705 652 50  0000 C CNN
F 2 "" H 1700 825 50  0000 C CNN
F 3 "" H 1700 825 50  0000 C CNN
	1    1700 825 
	-1   0    0    1   
$EndComp
Text Notes 5450 3375 2    60   ~ 0
PB8 is BOOT0:\nGND Boot to Flash\nN.C. DFU
$Comp
L CONN_01X05 P5
U 1 1 586D2376
P 8175 3650
F 0 "P5" H 8253 3691 50  0000 L CNN
F 1 "USB" H 8253 3600 50  0000 L CNN
F 2 "Pin_Headers:Pin_Header_Straight_1x05" H 8175 3650 50  0001 C CNN
F 3 "" H 8175 3650 50  0000 C CNN
	1    8175 3650
	-1   0    0    -1  
$EndComp
NoConn ~ 8375 3550
Text GLabel 4450 4625 0    60   Input ~ 0
NRST
Text GLabel 5075 7300 0    60   Input ~ 0
SPI_MISO
Text GLabel 5075 7200 0    60   Input ~ 0
SPI_CLK
Text GLabel 6275 3325 1    60   Input ~ 0
SPI_CLK
Text GLabel 6175 3325 1    60   Input ~ 0
SPI_MISO
Text GLabel 6075 3325 1    60   Input ~ 0
SPI_MOSI
Text GLabel 5575 7300 2    60   Input ~ 0
RF_IRQ
Text GLabel 6075 6025 3    60   Input ~ 0
LOAD_SW1
NoConn ~ -3500 3675
NoConn ~ -2525 3800
$Comp
L CONN_01X03 P2
U 1 1 586DFFAC
P 950 6125
F 0 "P2" H 869 5800 50  0000 C CNN
F 1 "SWD" H 869 5891 50  0000 C CNN
F 2 "Pin_Headers:Pin_Header_Straight_1x03" H 950 6125 50  0001 C CNN
F 3 "" H 950 6125 50  0000 C CNN
	1    950  6125
	0    -1   -1   0   
$EndComp
$Comp
L GND #PWR015
U 1 1 586E0964
P 8225 2475
F 0 "#PWR015" H 8225 2225 50  0001 C CNN
F 1 "GND" H 8230 2302 50  0000 C CNN
F 2 "" H 8225 2475 50  0000 C CNN
F 3 "" H 8225 2475 50  0000 C CNN
	1    8225 2475
	-1   0    0    -1  
$EndComp
Text GLabel 6275 6025 3    60   Input ~ 0
OC_CHARGING
Text GLabel 5975 3325 1    60   Input ~ 0
I2C_CLK
Text GLabel 5875 3325 1    60   Input ~ 0
I2C_DATA
Text GLabel 8125 2375 3    60   Input ~ 0
NRST
$Comp
L GND #PWR016
U 1 1 586E3E2E
P 9850 5750
F 0 "#PWR016" H 9850 5500 50  0001 C CNN
F 1 "GND" H 9855 5577 50  0000 C CNN
F 2 "" H 9850 5750 50  0000 C CNN
F 3 "" H 9850 5750 50  0000 C CNN
	1    9850 5750
	1    0    0    -1  
$EndComp
Text GLabel 7900 1475 1    60   Input ~ 0
AN_SOLARY
Text GLabel 1175 7125 2    60   Input ~ 0
I2C_CLK
Text GLabel 1175 7025 2    60   Input ~ 0
I2C_DATA
$Comp
L +3V3 #PWR017
U 1 1 586E602D
P 1400 7225
F 0 "#PWR017" H 1400 7075 50  0001 C CNN
F 1 "+3V3" H 1400 7350 50  0000 C CNN
F 2 "" H 1400 7225 50  0000 C CNN
F 3 "" H 1400 7225 50  0000 C CNN
	1    1400 7225
	0    1    -1   0   
$EndComp
$Comp
L GND #PWR018
U 1 1 586E65BF
P 1175 7325
F 0 "#PWR018" H 1175 7075 50  0001 C CNN
F 1 "GND" H 1180 7152 50  0000 C CNN
F 2 "" H 1175 7325 50  0000 C CNN
F 3 "" H 1175 7325 50  0000 C CNN
	1    1175 7325
	0    -1   1    0   
$EndComp
$Comp
L MCP1702T U2
U 1 1 586FB4D3
P 1700 1500
F 0 "U2" H 1700 1674 50  0000 C CNN
F 1 "MCP1702T" H 1700 1765 50  0000 C CNN
F 2 "TO_SOT_Packages_SMD:SOT-23" H 1750 1750 50  0001 C CNN
F 3 "" H 1700 1450 50  0000 C CNN
	1    1700 1500
	-1   0    0    1   
$EndComp
$Comp
L +3V3 #PWR019
U 1 1 586FBEA1
P 2300 1425
F 0 "#PWR019" H 2300 1275 50  0001 C CNN
F 1 "+3V3" H 2315 1598 50  0000 C CNN
F 2 "" H 2300 1425 50  0000 C CNN
F 3 "" H 2300 1425 50  0000 C CNN
	1    2300 1425
	1    0    0    -1  
$EndComp
$Comp
L PWR_FLAG #FLG020
U 1 1 5870ECC9
P 875 1425
F 0 "#FLG020" H 875 1500 50  0001 C CNN
F 1 "PWR_FLAG" H 875 1599 50  0000 C CNN
F 2 "" H 875 1425 50  0000 C CNN
F 3 "" H 875 1425 50  0000 C CNN
	1    875  1425
	1    0    0    -1  
$EndComp
$Comp
L PWR_FLAG #FLG021
U 1 1 5870F280
P 1750 875
F 0 "#FLG021" H 1750 950 50  0001 C CNN
F 1 "PWR_FLAG" V 1750 1003 50  0000 L CNN
F 2 "" H 1750 875 50  0000 C CNN
F 3 "" H 1750 875 50  0000 C CNN
	1    1750 875 
	0    1    1    0   
$EndComp
Text GLabel 5975 6025 3    60   Input ~ 0
LED2
Text Notes 9050 3425 0    60   ~ 0
LOAD_SW1 == PWM TIM3\nLOAD_SW2==PWM TIM14
Text GLabel 7725 2375 3    60   Input ~ 0
LED2
Text GLabel 7625 2375 3    60   Input ~ 0
LED1
Text GLabel 5875 6025 3    60   Input ~ 0
LED1
$Comp
L CONN_01X04 P1
U 1 1 5871274A
P 875 7175
F 0 "P1" H 952 7216 50  0000 L CNN
F 1 "OLED" H 952 7125 50  0000 L CNN
F 2 "Pin_Headers:Pin_Header_Straight_1x04" H 875 7175 50  0001 C CNN
F 3 "" H 875 7175 50  0000 C CNN
	1    875  7175
	-1   0    0    -1  
$EndComp
$Comp
L LED-RESCUE-rfcontroller D1
U 1 1 58712C55
P 3300 5850
F 0 "D1" H 3291 6066 50  0000 C CNN
F 1 "LED" H 3291 5975 50  0000 C CNN
F 2 "LEDs:LED_1206" H 3300 5850 50  0001 C CNN
F 3 "" H 3300 5850 50  0000 C CNN
	1    3300 5850
	1    0    0    -1  
$EndComp
$Comp
L R R5
U 1 1 58712DDB
P 3725 5850
F 0 "R5" V 3518 5850 50  0000 C CNN
F 1 "R" V 3609 5850 50  0000 C CNN
F 2 "Resistors_SMD:R_0603_HandSoldering" V 3655 5850 50  0001 C CNN
F 3 "" H 3725 5850 50  0000 C CNN
	1    3725 5850
	0    1    1    0   
$EndComp
$Comp
L GND #PWR022
U 1 1 58712ED6
P 3025 5850
F 0 "#PWR022" H 3025 5600 50  0001 C CNN
F 1 "GND" H 3030 5677 50  0000 C CNN
F 2 "" H 3025 5850 50  0000 C CNN
F 3 "" H 3025 5850 50  0000 C CNN
	1    3025 5850
	0    1    1    0   
$EndComp
Text GLabel 4025 5850 2    60   Input ~ 0
LED1
$Comp
L LED-RESCUE-rfcontroller D2
U 1 1 5871353E
P 3300 6250
F 0 "D2" H 3291 6466 50  0000 C CNN
F 1 "LED" H 3291 6375 50  0000 C CNN
F 2 "LEDs:LED_1206" H 3300 6250 50  0001 C CNN
F 3 "" H 3300 6250 50  0000 C CNN
	1    3300 6250
	1    0    0    -1  
$EndComp
$Comp
L R R6
U 1 1 58713544
P 3725 6250
F 0 "R6" V 3518 6250 50  0000 C CNN
F 1 "R" V 3609 6250 50  0000 C CNN
F 2 "Resistors_SMD:R_0603_HandSoldering" V 3655 6250 50  0001 C CNN
F 3 "" H 3725 6250 50  0000 C CNN
	1    3725 6250
	0    1    1    0   
$EndComp
$Comp
L GND #PWR023
U 1 1 5871354A
P 3025 6250
F 0 "#PWR023" H 3025 6000 50  0001 C CNN
F 1 "GND" H 3030 6077 50  0000 C CNN
F 2 "" H 3025 6250 50  0000 C CNN
F 3 "" H 3025 6250 50  0000 C CNN
	1    3025 6250
	0    1    1    0   
$EndComp
Text GLabel 4025 6250 2    60   Input ~ 0
LED2
$Comp
L R R9
U 1 1 58713F15
P 5775 3125
F 0 "R9" V 5875 3125 50  0000 C CNN
F 1 "10K" V 5950 3125 50  0000 C CNN
F 2 "Resistors_SMD:R_0603_HandSoldering" V 5705 3125 50  0001 C CNN
F 3 "" H 5775 3125 50  0000 C CNN
	1    5775 3125
	-1   0    0    1   
$EndComp
$Comp
L GND #PWR024
U 1 1 587142E9
P 5775 2900
F 0 "#PWR024" H 5775 2650 50  0001 C CNN
F 1 "GND" V 5780 2772 50  0000 R CNN
F 2 "" H 5775 2900 50  0000 C CNN
F 3 "" H 5775 2900 50  0000 C CNN
	1    5775 2900
	-1   0    0    1   
$EndComp
$Comp
L +5V #PWR025
U 1 1 58E91684
P 800 1500
F 0 "#PWR025" H 800 1350 50  0001 C CNN
F 1 "+5V" V 815 1628 50  0000 L CNN
F 2 "" H 800 1500 50  0000 C CNN
F 3 "" H 800 1500 50  0000 C CNN
	1    800  1500
	0    -1   -1   0   
$EndComp
$Comp
L GND #PWR026
U 1 1 58E9411D
P 2925 1100
F 0 "#PWR026" H 2925 850 50  0001 C CNN
F 1 "GND" V 2930 972 50  0000 R CNN
F 2 "" H 2925 1100 50  0001 C CNN
F 3 "" H 2925 1100 50  0001 C CNN
	1    2925 1100
	-1   0    0    1   
$EndComp
$Comp
L C C9
U 1 1 58E95808
P 4650 1150
F 0 "C9" H 4535 1104 50  0000 R CNN
F 1 "100nF" H 4525 1175 50  0000 R CNN
F 2 "Capacitors_SMD:C_0603_HandSoldering" H 4688 1000 50  0001 C CNN
F 3 "" H 4650 1150 50  0001 C CNN
	1    4650 1150
	-1   0    0    1   
$EndComp
$Comp
L L L1
U 1 1 58E9695A
P 4850 1325
F 0 "L1" V 4900 1150 50  0000 C CNN
F 1 "22uH" V 4925 1325 50  0000 C CNN
F 2 "Inductors:Inductor_Wurth_HCI-5040" H 4850 1325 50  0001 C CNN
F 3 "" H 4850 1325 50  0001 C CNN
	1    4850 1325
	0    -1   -1   0   
$EndComp
$Comp
L +5V #PWR027
U 1 1 58E97EBE
P 5750 1325
F 0 "#PWR027" H 5750 1175 50  0001 C CNN
F 1 "+5V" V 5775 1425 50  0000 L CNN
F 2 "" H 5750 1325 50  0001 C CNN
F 3 "" H 5750 1325 50  0001 C CNN
	1    5750 1325
	0    1    1    0   
$EndComp
$Comp
L C C10
U 1 1 58E9817B
P 5375 1550
F 0 "C10" H 5225 1475 50  0000 L CNN
F 1 "10uF" H 5175 1675 50  0000 L CNN
F 2 "Capacitors_SMD:C_0805_HandSoldering" H 5413 1400 50  0001 C CNN
F 3 "" H 5375 1550 50  0001 C CNN
	1    5375 1550
	-1   0    0    1   
$EndComp
$Comp
L GND #PWR028
U 1 1 58E98339
P 5375 1775
F 0 "#PWR028" H 5375 1525 50  0001 C CNN
F 1 "GND" H 5380 1602 50  0000 C CNN
F 2 "" H 5375 1775 50  0001 C CNN
F 3 "" H 5375 1775 50  0001 C CNN
	1    5375 1775
	1    0    0    -1  
$EndComp
Text GLabel 3250 1075 1    60   Input ~ 0
VFB
Text GLabel 4950 1925 0    60   Input ~ 0
VFB
$Comp
L R R7
U 1 1 58E9BF6B
P 5075 1600
F 0 "R7" V 4975 1600 50  0000 C CNN
F 1 "52.3k" V 5175 1600 50  0000 C CNN
F 2 "Resistors_SMD:R_0603_HandSoldering" V 5005 1600 50  0001 C CNN
F 3 "" H 5075 1600 50  0000 C CNN
	1    5075 1600
	1    0    0    -1  
$EndComp
$Comp
L R R8
U 1 1 58E9C21D
P 5075 2150
F 0 "R8" V 4975 2150 50  0000 C CNN
F 1 "10k" V 5175 2150 50  0000 C CNN
F 2 "Resistors_SMD:R_0603_HandSoldering" V 5005 2150 50  0001 C CNN
F 3 "" H 5075 2150 50  0000 C CNN
	1    5075 2150
	1    0    0    -1  
$EndComp
$Comp
L GND #PWR029
U 1 1 58E9C58D
P 5075 2375
F 0 "#PWR029" H 5075 2125 50  0001 C CNN
F 1 "GND" H 5080 2202 50  0000 C CNN
F 2 "" H 5075 2375 50  0001 C CNN
F 3 "" H 5075 2375 50  0001 C CNN
	1    5075 2375
	1    0    0    -1  
$EndComp
$Comp
L GND #PWR030
U 1 1 58E9E268
P 4475 975
F 0 "#PWR030" H 4475 725 50  0001 C CNN
F 1 "GND" V 4480 847 50  0000 R CNN
F 2 "" H 4475 975 50  0001 C CNN
F 3 "" H 4475 975 50  0001 C CNN
	1    4475 975 
	-1   0    0    1   
$EndComp
$Comp
L C C11
U 1 1 58EA2261
P 5625 1550
F 0 "C11" H 5475 1475 50  0000 L CNN
F 1 "10uF" H 5425 1675 50  0000 L CNN
F 2 "Capacitors_SMD:C_0805_HandSoldering" H 5663 1400 50  0001 C CNN
F 3 "" H 5625 1550 50  0001 C CNN
	1    5625 1550
	-1   0    0    1   
$EndComp
$Comp
L GND #PWR031
U 1 1 58EA2504
P 5625 1775
F 0 "#PWR031" H 5625 1525 50  0001 C CNN
F 1 "GND" H 5630 1602 50  0000 C CNN
F 2 "" H 5625 1775 50  0001 C CNN
F 3 "" H 5625 1775 50  0001 C CNN
	1    5625 1775
	1    0    0    -1  
$EndComp
$Comp
L C C2
U 1 1 58F0AA3A
P 1325 3025
F 0 "C2" H 1175 2950 50  0000 L CNN
F 1 "100nF" H 1125 3150 50  0000 L CNN
F 2 "Capacitors_SMD:C_0603_HandSoldering" H 1363 2875 50  0001 C CNN
F 3 "" H 1325 3025 50  0001 C CNN
	1    1325 3025
	-1   0    0    1   
$EndComp
$Comp
L GND #PWR032
U 1 1 58F0AF2E
P 1325 3225
F 0 "#PWR032" H 1325 2975 50  0001 C CNN
F 1 "GND" H 1330 3052 50  0000 C CNN
F 2 "" H 1325 3225 50  0000 C CNN
F 3 "" H 1325 3225 50  0000 C CNN
	1    1325 3225
	1    0    0    -1  
$EndComp
$Comp
L +5V #PWR033
U 1 1 58F378C4
P 8025 2375
F 0 "#PWR033" H 8025 2225 50  0001 C CNN
F 1 "+5V" V 8040 2503 50  0000 L CNN
F 2 "" H 8025 2375 50  0001 C CNN
F 3 "" H 8025 2375 50  0001 C CNN
	1    8025 2375
	-1   0    0    1   
$EndComp
$Comp
L GND #PWR034
U 1 1 58F393A2
P 8000 1400
F 0 "#PWR034" H 8000 1150 50  0001 C CNN
F 1 "GND" H 8005 1227 50  0000 C CNN
F 2 "" H 8000 1400 50  0000 C CNN
F 3 "" H 8000 1400 50  0000 C CNN
	1    8000 1400
	1    0    0    1   
$EndComp
Text GLabel 6900 1475 1    60   Input ~ 0
SPI_MISO
Text GLabel 7000 1475 1    60   Input ~ 0
SPI_MOSI
Text GLabel 6925 2450 3    60   Input ~ 0
SPI_CLK
$Comp
L +3V3 #PWR035
U 1 1 58F3C064
P 7025 2500
F 0 "#PWR035" H 7025 2350 50  0001 C CNN
F 1 "+3V3" H 7025 2625 50  0000 C CNN
F 2 "" H 7025 2500 50  0000 C CNN
F 3 "" H 7025 2500 50  0000 C CNN
	1    7025 2500
	-1   0    0    1   
$EndComp
$Comp
L 24LC1025 U1
U 1 1 58F480B8
P 1275 5350
F 0 "U1" H 1275 5828 50  0000 C CNN
F 1 "24LC01B" H 1475 5650 50  0000 C CNN
F 2 "Housings_SOIC:SOIC-8_3.9x4.9mm_Pitch1.27mm" H 1325 5100 50  0001 L CNN
F 3 "" H 1275 5250 50  0001 C CNN
	1    1275 5350
	1    0    0    -1  
$EndComp
$Comp
L +3V3 #PWR036
U 1 1 58F483F5
P 1275 4900
F 0 "#PWR036" H 1275 4750 50  0001 C CNN
F 1 "+3V3" H 1275 5025 50  0000 C CNN
F 2 "" H 1275 4900 50  0000 C CNN
F 3 "" H 1275 4900 50  0000 C CNN
	1    1275 4900
	1    0    0    -1  
$EndComp
$Comp
L GND #PWR037
U 1 1 58F48773
P 1275 5700
F 0 "#PWR037" H 1275 5450 50  0001 C CNN
F 1 "GND" H 1280 5527 50  0001 C CNN
F 2 "" H 1275 5700 50  0001 C CNN
F 3 "" H 1275 5700 50  0001 C CNN
	1    1275 5700
	1    0    0    -1  
$EndComp
Text GLabel 7225 2375 3    60   Input ~ 0
AN_BATTERY
Text GLabel 7325 2375 3    60   Input ~ 0
PA1
NoConn ~ 7125 2375
$Comp
L CONN_01X15 J2
U 1 1 58F4CC7B
P 7600 1675
F 0 "J2" V 7815 1670 50  0000 C CNN
F 1 "NUCLEO CN3" V 7724 1670 50  0000 C CNN
F 2 "Pin_Headers:Pin_Header_Straight_1x15" H 7600 1675 50  0001 C CNN
F 3 "" H 7600 1675 50  0001 C CNN
	1    7600 1675
	0    1    1    0   
$EndComp
Text GLabel 8100 1375 1    60   Input ~ 0
NRST
Text GLabel 8300 1375 1    60   Input ~ 0
ESP_UART_RX
Text GLabel 8200 1375 1    60   Input ~ 0
ESP_UART_TX
Text GLabel 2675 5350 2    60   Input ~ 0
I2C_CLK
Text GLabel 2025 5250 2    60   Input ~ 0
I2C_DATA
$Comp
L R R4
U 1 1 58F52114
P 2600 5125
F 0 "R4" H 2670 5171 50  0000 L CNN
F 1 "4.7k" H 2670 5080 50  0000 L CNN
F 2 "Resistors_SMD:R_0603_HandSoldering" V 2530 5125 50  0001 C CNN
F 3 "" H 2600 5125 50  0001 C CNN
	1    2600 5125
	-1   0    0    1   
$EndComp
$Comp
L R R3
U 1 1 58F534A5
P 1950 5075
F 0 "R3" H 2020 5121 50  0000 L CNN
F 1 "4.7k" H 2020 5030 50  0000 L CNN
F 2 "Resistors_SMD:R_0603_HandSoldering" V 1880 5075 50  0001 C CNN
F 3 "" H 1950 5075 50  0001 C CNN
	1    1950 5075
	1    0    0    -1  
$EndComp
Text GLabel 7800 1475 1    60   Input ~ 0
LOAD_SW1
Text GLabel 4675 5025 0    60   Input ~ 0
RF_CE_ESP_RST
Text GLabel 7200 1475 1    60   Input ~ 0
OC_CHARGE_FAULT
NoConn ~ 7100 1475
$Comp
L C C5
U 1 1 58F87C4C
P 3100 1225
F 0 "C5" H 3050 1325 50  0000 L CNN
F 1 "1uF" H 3050 1150 50  0000 L CNN
F 2 "Capacitors_SMD:C_0603_HandSoldering" H 3138 1075 50  0001 C CNN
F 3 "" H 3100 1225 50  0001 C CNN
	1    3100 1225
	0    1    1    0   
$EndComp
$Comp
L MCP16311/2-RESCUE-rfcontroller U3
U 1 1 58F87474
P 3350 1125
F 0 "U3" H 3900 1415 60  0000 C CNN
F 1 "MCP16311/2" H 3900 1309 60  0000 C CNN
F 2 "Housings_SSOP:MSOP-8_3x3mm_Pitch0.65mm" H 3350 1125 60  0001 C CNN
F 3 "" H 3350 1125 60  0001 C CNN
	1    3350 1125
	1    0    0    -1  
$EndComp
$Comp
L GND #PWR038
U 1 1 58F8A1A5
P 4450 1425
F 0 "#PWR038" H 4450 1175 50  0001 C CNN
F 1 "GND" V 4455 1297 50  0000 R CNN
F 2 "" H 4450 1425 50  0001 C CNN
F 3 "" H 4450 1425 50  0001 C CNN
	1    4450 1425
	0    -1   -1   0   
$EndComp
$Comp
L C C6
U 1 1 58F8BBC0
P 3225 1700
F 0 "C6" H 3225 1775 50  0000 L CNN
F 1 "10uF" H 3225 1625 50  0000 L CNN
F 2 "Capacitors_SMD:C_0805_HandSoldering" H 3263 1550 50  0001 C CNN
F 3 "" H 3225 1700 50  0001 C CNN
	1    3225 1700
	1    0    0    -1  
$EndComp
$Comp
L C C4
U 1 1 58E93D17
P 2950 1725
F 0 "C4" H 2825 1800 50  0000 L CNN
F 1 "10uF" H 2875 1650 50  0000 L CNN
F 2 "Capacitors_SMD:C_0805_HandSoldering" H 2988 1575 50  0001 C CNN
F 3 "" H 2950 1725 50  0001 C CNN
	1    2950 1725
	1    0    0    -1  
$EndComp
$Comp
L GND #PWR039
U 1 1 58F8FC06
P 3075 1950
F 0 "#PWR039" H 3075 1700 50  0001 C CNN
F 1 "GND" V 3080 1822 50  0000 R CNN
F 2 "" H 3075 1950 50  0001 C CNN
F 3 "" H 3075 1950 50  0001 C CNN
	1    3075 1950
	1    0    0    -1  
$EndComp
$Comp
L Crystal_GND24_Small Y1
U 1 1 58F8B115
P 3650 4400
F 0 "Y1" V 3604 4566 50  0000 L CNN
F 1 "Crystal_GND24_Small" V 3695 4566 50  0000 L CNN
F 2 "Crystals:Crystal_SMD_5032-4pin_5.0x3.2mm" H 3650 4400 50  0001 C CNN
F 3 "" H 3650 4400 50  0001 C CNN
	1    3650 4400
	0    1    1    0   
$EndComp
Text GLabel 950  6325 3    60   Input ~ 0
SWDCLK
Text GLabel 1050 6325 3    60   Input ~ 0
SWDIO
$Comp
L CONN_02X04 P3
U 1 1 58FB13DA
P 3200 7150
F 0 "P3" V 3154 7378 50  0000 L CNN
F 1 "ESP8266 - 1" H 3300 7450 50  0000 L CNN
F 2 "Pin_Headers:Pin_Header_Straight_2x04" H 3200 5950 50  0001 C CNN
F 3 "" H 3200 5950 50  0000 C CNN
	1    3200 7150
	-1   0    0    1   
$EndComp
Text GLabel 3450 7000 2    60   Input ~ 0
ESP_UART_RX
Text GLabel 2950 7300 0    60   Input ~ 0
ESP_UART_TX
$Comp
L GND #PWR040
U 1 1 58FB26AA
P 3450 7300
F 0 "#PWR040" H 3450 7050 50  0001 C CNN
F 1 "GND" H 3455 7127 50  0000 C CNN
F 2 "" H 3450 7300 50  0000 C CNN
F 3 "" H 3450 7300 50  0000 C CNN
	1    3450 7300
	0    -1   -1   0   
$EndComp
$Comp
L +3V3 #PWR041
U 1 1 58FB290F
P 2950 7000
F 0 "#PWR041" H 2950 6850 50  0001 C CNN
F 1 "+3V3" H 2965 7173 50  0000 C CNN
F 2 "" H 2950 7000 50  0000 C CNN
F 3 "" H 2950 7000 50  0000 C CNN
	1    2950 7000
	0    -1   -1   0   
$EndComp
Text GLabel 7600 1475 1    60   Input ~ 0
I2C_CLK
Text GLabel 7700 1475 1    60   Input ~ 0
I2C_DATA
Text GLabel 7500 1475 1    60   Input ~ 0
OC_CHARGING
Text GLabel 6375 3325 1    60   Input ~ 0
AN_SOLARY
Text GLabel 6175 6025 3    60   Input ~ 0
LOAD_SW2
Text GLabel 7375 4725 2    60   Input ~ 0
ESP_UART_TX
Text GLabel 7375 4825 2    60   Input ~ 0
ESP_UART_RX
Text GLabel 7375 4925 2    60   Input ~ 0
OC_CHARGE_FAULT
$Comp
L CONN_01X15 J1
U 1 1 58F4BF28
P 7625 2175
F 0 "J1" V 7750 2200 50  0000 L CNN
F 1 "NUCLEO CN4" V 7825 2050 50  0000 L CNN
F 2 "Pin_Headers:Pin_Header_Straight_1x15" H 7625 2175 50  0001 C CNN
F 3 "" H 7625 2175 50  0001 C CNN
	1    7625 2175
	0    1    -1   0   
$EndComp
Text GLabel 7925 2375 3    60   Input ~ 0
RF_CE_ESP_RST
Text GLabel 7825 2375 3    60   Input ~ 0
LOAD_SW1
Text GLabel 7525 2375 3    60   Input ~ 0
RF_CSN
Text GLabel 7425 2375 3    60   Input ~ 0
RF_IRQ
NoConn ~ 3450 7100
$Comp
L +3V3 #PWR042
U 1 1 58FBCCED
P 2950 7200
F 0 "#PWR042" H 2950 7050 50  0001 C CNN
F 1 "+3V3" H 2975 7325 50  0000 C CNN
F 2 "" H 2950 7200 50  0000 C CNN
F 3 "" H 2950 7200 50  0000 C CNN
	1    2950 7200
	0    -1   -1   0   
$EndComp
Text Notes 3500 7150 0    60   ~ 0
GPIO0
Text Notes 3500 7225 0    60   ~ 0
GPIO2
NoConn ~ 3450 7200
Text Notes 2500 7250 0    60   ~ 0
CHPD
$Comp
L +3V3 #PWR043
U 1 1 58FC2A77
P 4675 4725
F 0 "#PWR043" H 4675 4575 50  0001 C CNN
F 1 "+3V3" H 4700 4875 50  0000 C CNN
F 2 "" H 4675 4725 50  0000 C CNN
F 3 "" H 4675 4725 50  0000 C CNN
	1    4675 4725
	0    -1   -1   0   
$EndComp
Text Notes 800  5050 0    60   ~ 0
EEPROM\n
NoConn ~ 8375 3850
Text Notes 8425 3875 0    60   ~ 0
5v\n
$Comp
L STM32F042 U4
U 1 1 58FA56CE
P 4675 4325
F 0 "U4" H 5875 4200 60  0000 L CNN
F 1 "STM32F042" H 5750 3875 60  0000 L CNN
F 2 "Housings_QFP:LQFP-32_7x7mm_Pitch0.8mm" H 4675 4325 60  0001 C CNN
F 3 "" H 4675 4325 60  0001 C CNN
	1    4675 4325
	1    0    0    -1  
$EndComp
$Comp
L +3V3 #PWR044
U 1 1 58FA613D
P 4675 4325
F 0 "#PWR044" H 4675 4175 50  0001 C CNN
F 1 "+3V3" H 4700 4475 50  0000 C CNN
F 2 "" H 4675 4325 50  0000 C CNN
F 3 "" H 4675 4325 50  0000 C CNN
	1    4675 4325
	0    -1   -1   0   
$EndComp
$Comp
L GND #PWR045
U 1 1 58FA7590
P 5675 3325
F 0 "#PWR045" H 5675 3075 50  0001 C CNN
F 1 "GND" H 5680 3152 50  0000 C CNN
F 2 "" H 5675 3325 50  0000 C CNN
F 3 "" H 5675 3325 50  0000 C CNN
	1    5675 3325
	-1   0    0    1   
$EndComp
$Comp
L +3V3 #PWR046
U 1 1 58FAB821
P 7375 5025
F 0 "#PWR046" H 7375 4875 50  0001 C CNN
F 1 "+3V3" H 7390 5198 50  0000 C CNN
F 2 "" H 7375 5025 50  0000 C CNN
F 3 "" H 7375 5025 50  0000 C CNN
	1    7375 5025
	0    1    1    0   
$EndComp
Text GLabel 4675 4925 0    60   Input ~ 0
PA1
Text GLabel 2950 7100 0    60   Input ~ 0
RF_CE_ESP_RST
$Comp
L CONN_01X01 J3
U 1 1 5905F2F7
P 1100 3825
F 0 "J3" H 1178 3866 50  0000 L CNN
F 1 "Hole" H 1178 3775 50  0000 L CNN
F 2 "Connectors:1pin" H 1100 3825 50  0001 C CNN
F 3 "" H 1100 3825 50  0001 C CNN
	1    1100 3825
	1    0    0    -1  
$EndComp
NoConn ~ 900  3825
$Comp
L CONN_01X01 J5
U 1 1 5905F8A2
P 1100 4275
F 0 "J5" H 1178 4316 50  0000 L CNN
F 1 "Hole" H 1178 4225 50  0000 L CNN
F 2 "Connectors:1pin" H 1100 4275 50  0001 C CNN
F 3 "" H 1100 4275 50  0001 C CNN
	1    1100 4275
	1    0    0    -1  
$EndComp
NoConn ~ 900  4275
NoConn ~ 900  4525
$Comp
L CONN_01X01 J4
U 1 1 5905FB3E
P 1100 4025
F 0 "J4" H 1178 4066 50  0000 L CNN
F 1 "Hole" H 1178 3975 50  0000 L CNN
F 2 "Connectors:1pin" H 1100 4025 50  0001 C CNN
F 3 "" H 1100 4025 50  0001 C CNN
	1    1100 4025
	1    0    0    -1  
$EndComp
NoConn ~ 900  4025
$Comp
L GND #PWR047
U 1 1 593535B2
P 8375 3450
F 0 "#PWR047" H 8375 3200 50  0001 C CNN
F 1 "GND" H 8380 3277 50  0000 C CNN
F 2 "" H 8375 3450 50  0000 C CNN
F 3 "" H 8375 3450 50  0000 C CNN
	1    8375 3450
	0    -1   -1   0   
$EndComp
$Comp
L R R10
U 1 1 591DE5EF
P 3175 1325
F 0 "R10" V 3175 1325 50  0000 C CNN
F 1 "1M" V 3175 1325 50  0000 C CNN
F 2 "Resistors_SMD:R_0603_HandSoldering" V 3105 1325 50  0001 C CNN
F 3 "" H 3175 1325 50  0000 C CNN
	1    3175 1325
	0    1    1    0   
$EndComp
$Comp
L R R11
U 1 1 593D2CF8
P 10225 2525
F 0 "R11" H 10295 2571 50  0000 L CNN
F 1 "10k" H 10295 2480 50  0000 L CNN
F 2 "Resistors_SMD:R_0603_HandSoldering" V 10155 2525 50  0001 C CNN
F 3 "" H 10225 2525 50  0001 C CNN
	1    10225 2525
	1    0    0    -1  
$EndComp
$Comp
L GND #PWR048
U 1 1 593D36E4
P 10225 2375
F 0 "#PWR048" H 10225 2125 50  0001 C CNN
F 1 "GND" H 10230 2202 50  0000 C CNN
F 2 "" H 10225 2375 50  0001 C CNN
F 3 "" H 10225 2375 50  0001 C CNN
	1    10225 2375
	-1   0    0    1   
$EndComp
$Comp
L R R12
U 1 1 593D387E
P 10550 3125
F 0 "R12" H 10620 3171 50  0000 L CNN
F 1 "10k" H 10620 3080 50  0000 L CNN
F 2 "Resistors_SMD:R_0603_HandSoldering" V 10480 3125 50  0001 C CNN
F 3 "" H 10550 3125 50  0001 C CNN
	1    10550 3125
	1    0    0    -1  
$EndComp
$Comp
L GND #PWR049
U 1 1 593D3E38
P 10550 3325
F 0 "#PWR049" H 10550 3075 50  0001 C CNN
F 1 "GND" H 10555 3152 50  0000 C CNN
F 2 "" H 10550 3325 50  0001 C CNN
F 3 "" H 10550 3325 50  0001 C CNN
	1    10550 3325
	1    0    0    -1  
$EndComp
$Comp
L CONN_01X05 J8
U 1 1 593D4F1D
P 3275 3025
F 0 "J8" H 3352 3066 50  0000 L CNN
F 1 "MAX31855" H 3352 2975 50  0000 L CNN
F 2 "Pin_Headers:Pin_Header_Straight_1x05" H 3275 3025 50  0001 C CNN
F 3 "" H 3275 3025 50  0001 C CNN
	1    3275 3025
	1    0    0    -1  
$EndComp
$Comp
L GND #PWR050
U 1 1 593D5063
P 3075 2925
F 0 "#PWR050" H 3075 2675 50  0001 C CNN
F 1 "GND" H 3080 2752 50  0000 C CNN
F 2 "" H 3075 2925 50  0001 C CNN
F 3 "" H 3075 2925 50  0001 C CNN
	1    3075 2925
	0    1    1    0   
$EndComp
$Comp
L +3V3 #PWR051
U 1 1 593D53D1
P 3075 2825
F 0 "#PWR051" H 3075 2675 50  0001 C CNN
F 1 "+3V3" H 3100 2975 50  0000 C CNN
F 2 "" H 3075 2825 50  0000 C CNN
F 3 "" H 3075 2825 50  0000 C CNN
	1    3075 2825
	0    -1   -1   0   
$EndComp
Text GLabel 3075 3225 0    60   Input ~ 0
SPI_CLK
Text GLabel 3075 3025 0    60   Input ~ 0
SPI_MISO
Text Notes 2625 3750 0    60   ~ 0
CS pin is connected to GND \nvia pulldown (deselected)\nUser need to Hard wire\nto cutom pin such as A0 or\nRF_CSN or whatever
$Comp
L R R13
U 1 1 593D7107
P 2400 3325
F 0 "R13" H 2470 3371 50  0000 L CNN
F 1 "10K" H 2470 3280 50  0000 L CNN
F 2 "Resistors_SMD:R_0603_HandSoldering" V 2330 3325 50  0001 C CNN
F 3 "" H 2400 3325 50  0000 C CNN
	1    2400 3325
	1    0    0    -1  
$EndComp
$Comp
L +12V #PWR052
U 1 1 586F8E22
P 8475 2450
F 0 "#PWR052" H 8475 2300 50  0001 C CNN
F 1 "+12V" H 8575 2400 50  0000 C CNN
F 2 "" H 8475 2450 50  0000 C CNN
F 3 "" H 8475 2450 50  0000 C CNN
	1    8475 2450
	0    1    1    0   
$EndComp
$Comp
L +12V #PWR053
U 1 1 5769EDFB
P 1025 2300
F 0 "#PWR053" H 1025 2150 50  0001 C CNN
F 1 "+12V" H 1040 2473 50  0000 C CNN
F 2 "" H 1025 2300 50  0000 C CNN
F 3 "" H 1025 2300 50  0000 C CNN
	1    1025 2300
	1    0    0    -1  
$EndComp
Wire Wire Line
	9500 1125 10500 1125
Wire Wire Line
	10000 1025 10000 1175
Connection ~ 10000 1125
Wire Wire Line
	9500 1525 10500 1525
Wire Wire Line
	10000 1475 10000 1625
Connection ~ 10000 1525
Wire Wire Line
	9500 1475 9500 1525
Wire Wire Line
	10500 1525 10500 1475
Wire Wire Line
	10500 1125 10500 1175
Wire Wire Line
	9500 1125 9500 1175
Wire Wire Line
	2000 1500 2300 1500
Wire Wire Line
	1100 1500 1100 1325
Wire Wire Line
	1100 950  1825 950 
Wire Wire Line
	1700 825  1700 1200
Wire Wire Line
	800  1500 1400 1500
Connection ~ 1700 950 
Connection ~ 1100 1500
Wire Wire Line
	5575 7000 5725 7000
Wire Wire Line
	10100 2700 10350 2700
Wire Wire Line
	10100 2900 10650 2900
Wire Wire Line
	10100 2800 10325 2800
Wire Wire Line
	10325 3000 10100 3000
Wire Wire Line
	9300 2700 9300 2800
Wire Wire Line
	9300 2900 9300 3000
Wire Wire Line
	9150 2950 9300 2950
Connection ~ 9300 2950
Wire Wire Line
	9150 2750 9300 2750
Connection ~ 9300 2750
Wire Wire Line
	9975 4325 9900 4325
Wire Wire Line
	9900 4325 9900 4375
Wire Wire Line
	9850 4225 9975 4225
Wire Wire Line
	9975 4900 9900 4900
Wire Wire Line
	9900 4900 9900 4950
Wire Wire Line
	9850 4800 9975 4800
Wire Wire Line
	1025 2700 1025 2875
Wire Wire Line
	1025 2775 1475 2775
Connection ~ 1025 2775
Wire Wire Line
	1025 3175 1025 3250
Wire Wire Line
	3925 4425 4675 4425
Wire Wire Line
	3925 4175 3925 4425
Wire Wire Line
	3450 4175 3925 4175
Wire Wire Line
	3650 4175 3650 4300
Wire Wire Line
	3650 4500 3650 4625
Wire Wire Line
	3400 4625 4050 4625
Wire Wire Line
	4050 4625 4050 4525
Connection ~ 3650 4175
Connection ~ 3650 4625
Wire Wire Line
	3025 4625 3100 4625
Wire Wire Line
	3025 4175 3150 4175
Wire Wire Line
	1100 950  1100 1025
Wire Wire Line
	850  6325 850  6425
Wire Wire Line
	850  6425 800  6425
Wire Wire Line
	8225 2475 8225 2375
Wire Wire Line
	9850 5625 9950 5625
Wire Wire Line
	9950 5725 9850 5725
Wire Wire Line
	9850 5725 9850 5750
Wire Wire Line
	8325 2375 8325 2450
Wire Wire Line
	8325 2450 8475 2450
Wire Wire Line
	1400 7225 1075 7225
Wire Wire Line
	1075 7325 1175 7325
Wire Wire Line
	1175 7025 1075 7025
Wire Wire Line
	1075 7125 1175 7125
Wire Wire Line
	875  1425 875  1500
Connection ~ 875  1500
Wire Wire Line
	1750 875  1700 875 
Connection ~ 1700 875 
Wire Wire Line
	3025 5850 3150 5850
Wire Wire Line
	3450 5850 3575 5850
Wire Wire Line
	3875 5850 4025 5850
Wire Wire Line
	3025 6250 3150 6250
Wire Wire Line
	3450 6250 3575 6250
Wire Wire Line
	3875 6250 4025 6250
Wire Wire Line
	5775 2975 5775 2900
Wire Wire Line
	4450 1325 4700 1325
Wire Wire Line
	5375 1775 5375 1700
Wire Wire Line
	5075 1750 5075 2000
Wire Wire Line
	5075 2300 5075 2375
Wire Wire Line
	5075 1925 4950 1925
Connection ~ 5075 1925
Wire Wire Line
	5000 1325 5750 1325
Wire Wire Line
	1025 2300 1025 2400
Connection ~ 5075 1325
Wire Wire Line
	5375 1400 5375 1325
Connection ~ 5375 1325
Wire Wire Line
	5625 1400 5625 1325
Connection ~ 5625 1325
Wire Wire Line
	5625 1700 5625 1775
Wire Wire Line
	1325 2775 1325 2875
Connection ~ 1325 2775
Wire Wire Line
	1325 3175 1325 3225
Wire Wire Line
	5775 3325 5775 3325
Wire Wire Line
	8000 1475 8000 1400
Wire Wire Line
	6925 2375 6925 2450
Wire Wire Line
	1275 4900 1275 5050
Wire Wire Line
	1275 5650 1275 5700
Wire Wire Line
	7025 2375 7025 2500
Wire Wire Line
	8100 1375 8100 1475
Wire Wire Line
	8200 1375 8200 1475
Wire Wire Line
	8300 1475 8300 1375
Wire Wire Line
	2675 5350 1675 5350
Wire Wire Line
	1675 5450 1775 5450
Wire Wire Line
	1775 5450 1775 5675
Wire Wire Line
	1775 5675 800  5675
Connection ~ 1275 5675
Wire Wire Line
	800  5675 800  5250
Wire Wire Line
	800  5450 875  5450
Wire Wire Line
	800  5350 875  5350
Connection ~ 800  5450
Wire Wire Line
	800  5250 875  5250
Connection ~ 800  5350
Wire Wire Line
	3250 1225 3350 1225
Wire Wire Line
	2925 1225 2925 1100
Wire Wire Line
	2925 1225 2950 1225
Wire Wire Line
	3350 1125 3250 1125
Wire Wire Line
	3250 1125 3250 1075
Wire Wire Line
	5075 1325 5075 1450
Wire Wire Line
	4450 1125 4475 1125
Wire Wire Line
	4475 1125 4475 975 
Wire Wire Line
	4450 1225 4550 1225
Wire Wire Line
	4550 1225 4550 975 
Wire Wire Line
	4550 975  4650 975 
Wire Wire Line
	4650 1300 4650 1325
Connection ~ 4650 1325
Wire Wire Line
	4650 975  4650 1000
Wire Wire Line
	2950 1550 3225 1550
Wire Wire Line
	3100 1425 3100 1550
Connection ~ 3100 1550
Wire Wire Line
	3225 1900 3225 1850
Wire Wire Line
	2825 1425 3350 1425
Wire Wire Line
	2950 1875 2950 1900
Wire Wire Line
	2950 1900 3225 1900
Connection ~ 3100 1425
Wire Wire Line
	2300 1500 2300 1425
Wire Wire Line
	2950 1550 2950 1575
Connection ~ 2825 1425
Wire Wire Line
	2825 1425 2825 1375
Wire Wire Line
	3075 1950 3075 1900
Connection ~ 3075 1900
Wire Wire Line
	2125 950  2175 950 
Wire Wire Line
	2175 950  2175 1500
Connection ~ 2175 1500
Wire Wire Line
	3525 4400 3050 4400
Wire Wire Line
	3050 4400 3050 4625
Connection ~ 3050 4625
Wire Wire Line
	3825 4025 3100 4025
Wire Wire Line
	3100 4025 3100 4175
Connection ~ 3100 4175
Wire Wire Line
	3825 4025 3825 4400
Wire Wire Line
	3825 4400 3775 4400
Connection ~ 1025 2350
Wire Notes Line
	2525 650  2525 2600
Wire Notes Line
	2525 2600 6150 2600
Wire Notes Line
	6150 2600 6150 650 
Wire Notes Line
	6150 650  2525 650 
Wire Wire Line
	4450 4625 4675 4625
Wire Wire Line
	4050 4525 4675 4525
Wire Wire Line
	5775 3275 5775 3325
Wire Wire Line
	1950 4925 1950 4875
Wire Wire Line
	1275 4875 2600 4875
Wire Wire Line
	1275 4875 1275 4925
Connection ~ 1275 4925
Wire Wire Line
	1950 5225 1950 5250
Connection ~ 1950 5250
Wire Wire Line
	1675 5250 2025 5250
Wire Wire Line
	2600 5275 2600 5350
Connection ~ 2600 5350
Wire Wire Line
	2600 4875 2600 4975
Connection ~ 1950 4875
Connection ~ 3025 1425
Wire Wire Line
	3025 1325 3025 1425
Wire Wire Line
	10225 2675 10225 2700
Connection ~ 10225 2700
Wire Wire Line
	10550 2900 10550 2975
Connection ~ 10550 2900
Wire Wire Line
	10550 3275 10550 3325
Wire Wire Line
	2350 3125 3075 3125
Wire Wire Line
	2400 3125 2400 3175
$Comp
L CONN_01X01 J6
U 1 1 5905FA23
P 1100 4525
F 0 "J6" H 1178 4566 50  0000 L CNN
F 1 "Hole" H 1178 4475 50  0000 L CNN
F 2 "Connectors:1pin" H 1100 4525 50  0001 C CNN
F 3 "" H 1100 4525 50  0001 C CNN
	1    1100 4525
	1    0    0    -1  
$EndComp
$Comp
L GND #PWR054
U 1 1 593DE02F
P 1025 3250
F 0 "#PWR054" H 1025 3000 50  0001 C CNN
F 1 "GND" H 1030 3077 50  0000 C CNN
F 2 "" H 1025 3250 50  0000 C CNN
F 3 "" H 1025 3250 50  0000 C CNN
	1    1025 3250
	1    0    0    -1  
$EndComp
$Comp
L Q_PMOS_GSD Q1
U 1 1 594959A1
P 3900 2100
F 0 "Q1" V 4150 2100 50  0000 C CNN
F 1 "SI2319" V 4241 2100 50  0000 C CNN
F 2 "TO_SOT_Packages_SMD:SOT-23" H 4100 2200 50  0001 C CNN
F 3 "" H 3900 2100 50  0001 C CNN
	1    3900 2100
	0    1    1    0   
$EndComp
Wire Wire Line
	4100 2200 4275 2200
Wire Wire Line
	4275 2200 4275 2175
$Comp
L GND #PWR055
U 1 1 594967D8
P 3900 1825
F 0 "#PWR055" H 3900 1575 50  0001 C CNN
F 1 "GND" V 3905 1697 50  0000 R CNN
F 2 "" H 3900 1825 50  0001 C CNN
F 3 "" H 3900 1825 50  0001 C CNN
	1    3900 1825
	-1   0    0    1   
$EndComp
Wire Wire Line
	3900 1825 3900 1900
$Comp
L +12V #PWR056
U 1 1 594970E6
P 3600 2175
F 0 "#PWR056" H 3600 2025 50  0001 C CNN
F 1 "+12V" H 3575 2025 50  0000 C CNN
F 2 "" H 3600 2175 50  0000 C CNN
F 3 "" H 3600 2175 50  0000 C CNN
	1    3600 2175
	1    0    0    -1  
$EndComp
Wire Wire Line
	3700 2200 3600 2200
Wire Wire Line
	3600 2200 3600 2175
Text GLabel 4275 2175 1    60   Input ~ 0
BAT_VCC
Text GLabel 9850 5625 0    60   Input ~ 0
BAT_VCC
$Comp
L PWR_FLAG #FLG057
U 1 1 594988A0
P 3675 2125
F 0 "#FLG057" H 3675 2200 50  0001 C CNN
F 1 "PWR_FLAG" H 3675 2299 50  0000 C CNN
F 2 "" H 3675 2125 50  0001 C CNN
F 3 "" H 3675 2125 50  0001 C CNN
	1    3675 2125
	1    0    0    -1  
$EndComp
Wire Wire Line
	3675 2125 3675 2200
Connection ~ 3675 2200
Wire Wire Line
	3325 1325 3350 1325
$Comp
L PWR_FLAG #FLG058
U 1 1 59499FF3
P 3350 1300
F 0 "#FLG058" H 3350 1375 50  0001 C CNN
F 1 "PWR_FLAG" H 3350 1474 50  0000 C CNN
F 2 "" H 3350 1300 50  0001 C CNN
F 3 "" H 3350 1300 50  0001 C CNN
	1    3350 1300
	1    0    0    -1  
$EndComp
Wire Wire Line
	3350 1325 3350 1300
$Comp
L CONN_01X01 J7
U 1 1 594CE548
P 1625 4500
F 0 "J7" H 1703 4541 50  0000 L CNN
F 1 "Hole" H 1703 4450 50  0000 L CNN
F 2 "Connectors:1pin" H 1625 4500 50  0001 C CNN
F 3 "" H 1625 4500 50  0001 C CNN
	1    1625 4500
	1    0    0    -1  
$EndComp
Text GLabel 2350 3125 0    60   Input ~ 0
PA1
Connection ~ 2400 3125
$Comp
L +3V3 #PWR059
U 1 1 594E5A19
P 2400 3525
F 0 "#PWR059" H 2400 3375 50  0001 C CNN
F 1 "+3V3" H 2425 3675 50  0000 C CNN
F 2 "" H 2400 3525 50  0000 C CNN
F 3 "" H 2400 3525 50  0000 C CNN
	1    2400 3525
	-1   0    0    1   
$EndComp
Wire Wire Line
	2400 3525 2400 3475
$EndSCHEMATC
